%YAML 1.1
%TAG !u! tag:unity3d.com,2011:
--- !u!29 &1
OcclusionCullingSettings:
  m_ObjectHideFlags: 0
  serializedVersion: 2
  m_OcclusionBakeSettings:
    smallestOccluder: 5
    smallestHole: 0.25
    backfaceThreshold: 100
  m_SceneGUID: 00000000000000000000000000000000
  m_OcclusionCullingData: {fileID: 0}
--- !u!104 &2
RenderSettings:
  m_ObjectHideFlags: 0
  serializedVersion: 9
  m_Fog: 0
  m_FogColor: {r: 0.5, g: 0.5, b: 0.5, a: 1}
  m_FogMode: 3
  m_FogDensity: 0.01
  m_LinearFogStart: 0
  m_LinearFogEnd: 300
  m_AmbientSkyColor: {r: 0.212, g: 0.227, b: 0.259, a: 1}
  m_AmbientEquatorColor: {r: 0.114, g: 0.125, b: 0.133, a: 1}
  m_AmbientGroundColor: {r: 0.047, g: 0.043, b: 0.035, a: 1}
  m_AmbientIntensity: 1
  m_AmbientMode: 0
  m_SubtractiveShadowColor: {r: 0.42, g: 0.478, b: 0.627, a: 1}
  m_SkyboxMaterial: {fileID: 10304, guid: 0000000000000000f000000000000000, type: 0}
  m_HaloStrength: 0.5
  m_FlareStrength: 1
  m_FlareFadeSpeed: 3
  m_HaloTexture: {fileID: 0}
  m_SpotCookie: {fileID: 10001, guid: 0000000000000000e000000000000000, type: 0}
  m_DefaultReflectionMode: 0
  m_DefaultReflectionResolution: 128
  m_ReflectionBounces: 1
  m_ReflectionIntensity: 1
  m_CustomReflection: {fileID: 0}
  m_Sun: {fileID: 0}
  m_IndirectSpecularColor: {r: 0, g: 0, b: 0, a: 1}
  m_UseRadianceAmbientProbe: 0
--- !u!157 &3
LightmapSettings:
  m_ObjectHideFlags: 0
  serializedVersion: 11
  m_GIWorkflowMode: 1
  m_GISettings:
    serializedVersion: 2
    m_BounceScale: 1
    m_IndirectOutputScale: 1
    m_AlbedoBoost: 1
    m_EnvironmentLightingMode: 0
    m_EnableBakedLightmaps: 1
    m_EnableRealtimeLightmaps: 0
  m_LightmapEditorSettings:
    serializedVersion: 12
    m_Resolution: 2
    m_BakeResolution: 40
    m_AtlasSize: 1024
    m_AO: 0
    m_AOMaxDistance: 1
    m_CompAOExponent: 1
    m_CompAOExponentDirect: 0
    m_ExtractAmbientOcclusion: 0
    m_Padding: 2
    m_LightmapParameters: {fileID: 0}
    m_LightmapsBakeMode: 1
    m_TextureCompression: 1
    m_FinalGather: 0
    m_FinalGatherFiltering: 1
    m_FinalGatherRayCount: 256
    m_ReflectionCompression: 2
    m_MixedBakeMode: 2
    m_BakeBackend: 1
    m_PVRSampling: 1
    m_PVRDirectSampleCount: 32
    m_PVRSampleCount: 512
    m_PVRBounces: 2
    m_PVREnvironmentSampleCount: 256
    m_PVREnvironmentReferencePointCount: 2048
    m_PVRFilteringMode: 1
    m_PVRDenoiserTypeDirect: 1
    m_PVRDenoiserTypeIndirect: 1
    m_PVRDenoiserTypeAO: 1
    m_PVRFilterTypeDirect: 0
    m_PVRFilterTypeIndirect: 0
    m_PVRFilterTypeAO: 0
    m_PVREnvironmentMIS: 1
    m_PVRCulling: 1
    m_PVRFilteringGaussRadiusDirect: 1
    m_PVRFilteringGaussRadiusIndirect: 5
    m_PVRFilteringGaussRadiusAO: 2
    m_PVRFilteringAtrousPositionSigmaDirect: 0.5
    m_PVRFilteringAtrousPositionSigmaIndirect: 2
    m_PVRFilteringAtrousPositionSigmaAO: 1
    m_ExportTrainingData: 0
    m_TrainingDataDestination: TrainingData
    m_LightProbeSampleCountMultiplier: 4
  m_LightingDataAsset: {fileID: 0}
  m_UseShadowmask: 1
--- !u!196 &4
NavMeshSettings:
  serializedVersion: 2
  m_ObjectHideFlags: 0
  m_BuildSettings:
    serializedVersion: 2
    agentTypeID: 0
    agentRadius: 0.5
    agentHeight: 2
    agentSlope: 45
    agentClimb: 0.4
    ledgeDropHeight: 0
    maxJumpAcrossDistance: 0
    minRegionArea: 2
    manualCellSize: 0
    cellSize: 0.16666667
    manualTileSize: 0
    tileSize: 256
    accuratePlacement: 0
    debug:
      m_Flags: 0
  m_NavMeshData: {fileID: 0}
--- !u!1 &40592997
GameObject:
  m_ObjectHideFlags: 0
  m_CorrespondingSourceObject: {fileID: 0}
  m_PrefabInstance: {fileID: 0}
  m_PrefabAsset: {fileID: 0}
  serializedVersion: 6
  m_Component:
  - component: {fileID: 40592999}
  - component: {fileID: 40592998}
  - component: {fileID: 40593001}
  - component: {fileID: 40593000}
  m_Layer: 0
  m_Name: Main Camera
  m_TagString: MainCamera
  m_Icon: {fileID: 0}
  m_NavMeshLayer: 0
  m_StaticEditorFlags: 0
  m_IsActive: 1
--- !u!20 &40592998
Camera:
  m_ObjectHideFlags: 0
  m_CorrespondingSourceObject: {fileID: 0}
  m_PrefabInstance: {fileID: 0}
  m_PrefabAsset: {fileID: 0}
  m_GameObject: {fileID: 40592997}
  m_Enabled: 1
  serializedVersion: 2
  m_ClearFlags: 1
  m_BackGroundColor: {r: 0.19215687, g: 0.3019608, b: 0.4745098, a: 0}
  m_projectionMatrixMode: 1
  m_GateFitMode: 2
  m_FOVAxisMode: 0
  m_SensorSize: {x: 36, y: 24}
  m_LensShift: {x: 0, y: 0}
  m_FocalLength: 50
  m_NormalizedViewPortRect:
    serializedVersion: 2
    x: 0
    y: 0
    width: 1
    height: 1
  near clip plane: 0.3
  far clip plane: 1000
  field of view: 60
  orthographic: 0
  orthographic size: 5
  m_Depth: -1
  m_CullingMask:
    serializedVersion: 2
    m_Bits: 4294967295
  m_RenderingPath: -1
  m_TargetTexture: {fileID: 0}
  m_TargetDisplay: 0
  m_TargetEye: 3
  m_HDR: 1
  m_AllowMSAA: 1
  m_AllowDynamicResolution: 0
  m_ForceIntoRT: 0
  m_OcclusionCulling: 1
  m_StereoConvergence: 10
  m_StereoSeparation: 0.022
--- !u!4 &40592999
Transform:
  m_ObjectHideFlags: 0
  m_CorrespondingSourceObject: {fileID: 0}
  m_PrefabInstance: {fileID: 0}
  m_PrefabAsset: {fileID: 0}
  m_GameObject: {fileID: 40592997}
  m_LocalRotation: {x: 0.21689788, y: 0.4217356, z: -0.10464244, w: 0.8741535}
  m_LocalPosition: {x: 42.6, y: 68.73, z: 24.6}
  m_LocalScale: {x: 1, y: 1, z: 1}
  m_Children: []
  m_Father: {fileID: 0}
  m_RootOrder: 0
  m_LocalEulerAnglesHint: {x: 27.87, y: 51.51, z: 0}
--- !u!114 &40593000
MonoBehaviour:
  m_ObjectHideFlags: 0
  m_CorrespondingSourceObject: {fileID: 0}
  m_PrefabInstance: {fileID: 0}
  m_PrefabAsset: {fileID: 0}
  m_GameObject: {fileID: 40592997}
  m_Enabled: 1
  m_EditorHideFlags: 0
  m_Script: {fileID: 11500000, guid: ab00a14ace35229489189437f4636a17, type: 3}
  m_Name: 
  m_EditorClassIdentifier: 
  showScreenMask: 0
  doTransition: 0
  cancelTransition: 0
  useUnderSurfaceView: 0
  distanceFog: 1
  useRadialDistance: 1
  heightFog: 0
  height: 1
  heightDensity: 2
  startDistance: 0
  fogStart: 0
  fogEnd: 20
  refractAmt: 0.005
  refractSpd: 1.5
  refractScale: 0.5
  lightFactor: 1
  underwaterColor: {r: 0, g: 0, b: 0, a: 0}
  dropsTime: 2
  wipeTime: 1
  transitionStrength: 1
  iterations: 2
  blurSpread: 1
  darkRange: 40
  heightDepth: 1
  hFac: 0
  distortTex: {fileID: 0}
  mask2Tex: {fileID: 0}
  fogShader: {fileID: 0}
  fogMaterial: {fileID: 0}
--- !u!81 &40593001
AudioListener:
  m_ObjectHideFlags: 0
  m_CorrespondingSourceObject: {fileID: 0}
  m_PrefabInstance: {fileID: 0}
  m_PrefabAsset: {fileID: 0}
  m_GameObject: {fileID: 40592997}
  m_Enabled: 1
--- !u!84 &513857823
RenderTexture:
  m_ObjectHideFlags: 0
  m_CorrespondingSourceObject: {fileID: 0}
  m_PrefabInstance: {fileID: 0}
  m_PrefabAsset: {fileID: 0}
  m_Name: 
  m_ImageContentsHash:
    serializedVersion: 2
    Hash: 00000000000000000000000000000000
  m_ForcedFallbackFormat: 4
  m_DownscaleFallback: 0
  serializedVersion: 3
  m_Width: 128
  m_Height: 128
  m_AntiAliasing: 1
  m_MipCount: -1
  m_DepthFormat: 2
  m_ColorFormat: 52
  m_MipMap: 0
  m_GenerateMips: 0
  m_SRGB: 0
  m_UseDynamicScale: 0
  m_BindMS: 0
  m_EnableCompatibleFormat: 1
  m_TextureSettings:
    serializedVersion: 2
    m_FilterMode: 2
    m_Aniso: 1
    m_MipBias: 0
    m_WrapU: 1
    m_WrapV: 1
    m_WrapW: 1
  m_Dimension: 2
  m_VolumeDepth: 1
--- !u!1001 &587476772
PrefabInstance:
  m_ObjectHideFlags: 0
  serializedVersion: 2
  m_Modification:
    m_TransformParent: {fileID: 0}
    m_Modifications:
    - target: {fileID: 6886428398832849614, guid: 5cccbd15402a33a439fe3269124f7917,
        type: 3}
      propertyPath: m_Materials.Array.data[0]
      value: 
      objectReference: {fileID: 1154793579}
    - target: {fileID: 6886428398981430192, guid: 5cccbd15402a33a439fe3269124f7917,
        type: 3}
      propertyPath: near clip plane
      value: 0.3
      objectReference: {fileID: 0}
    - target: {fileID: 6886428398981430192, guid: 5cccbd15402a33a439fe3269124f7917,
        type: 3}
      propertyPath: field of view
      value: 60
      objectReference: {fileID: 0}
    - target: {fileID: 6886428398981430192, guid: 5cccbd15402a33a439fe3269124f7917,
        type: 3}
      propertyPath: orthographic size
      value: 5
      objectReference: {fileID: 0}
    - target: {fileID: 6886428398981430192, guid: 5cccbd15402a33a439fe3269124f7917,
        type: 3}
      propertyPath: m_Depth
      value: -1
      objectReference: {fileID: 0}
    - target: {fileID: 6886428398981430192, guid: 5cccbd15402a33a439fe3269124f7917,
        type: 3}
      propertyPath: m_RenderingPath
      value: -1
      objectReference: {fileID: 0}
    - target: {fileID: 6886428398981430192, guid: 5cccbd15402a33a439fe3269124f7917,
        type: 3}
      propertyPath: m_TargetTexture
      value: 
      objectReference: {fileID: 1648721214}
    - target: {fileID: 6886428398981430193, guid: 5cccbd15402a33a439fe3269124f7917,
        type: 3}
      propertyPath: m_LocalRotation.x
      value: 0.0009999991
      objectReference: {fileID: 0}
    - target: {fileID: 6886428398981430193, guid: 5cccbd15402a33a439fe3269124f7917,
        type: 3}
      propertyPath: m_LocalRotation.y
      value: 0.43452343
      objectReference: {fileID: 0}
    - target: {fileID: 6886428398981430193, guid: 5cccbd15402a33a439fe3269124f7917,
        type: 3}
      propertyPath: m_LocalRotation.z
      value: 0.0009999991
      objectReference: {fileID: 0}
    - target: {fileID: 6886428398981430193, guid: 5cccbd15402a33a439fe3269124f7917,
        type: 3}
      propertyPath: m_LocalRotation.w
      value: 0.9006595
      objectReference: {fileID: 0}
    - target: {fileID: 6886428398981430193, guid: 5cccbd15402a33a439fe3269124f7917,
        type: 3}
      propertyPath: m_LocalPosition.x
      value: -20.900002
      objectReference: {fileID: 0}
    - target: {fileID: 6886428398981430193, guid: 5cccbd15402a33a439fe3269124f7917,
        type: 3}
      propertyPath: m_LocalPosition.y
      value: 15.730003
      objectReference: {fileID: 0}
    - target: {fileID: 6886428398981430193, guid: 5cccbd15402a33a439fe3269124f7917,
        type: 3}
      propertyPath: m_LocalPosition.z
      value: -39.6
      objectReference: {fileID: 0}
    - target: {fileID: 6886428398981430193, guid: 5cccbd15402a33a439fe3269124f7917,
        type: 3}
      propertyPath: m_LocalScale.x
      value: 1
      objectReference: {fileID: 0}
    - target: {fileID: 6886428398981430193, guid: 5cccbd15402a33a439fe3269124f7917,
        type: 3}
      propertyPath: m_LocalScale.z
      value: 1
      objectReference: {fileID: 0}
    - target: {fileID: 6886428399874818234, guid: 5cccbd15402a33a439fe3269124f7917,
        type: 3}
      propertyPath: m_LocalPosition.x
      value: 63.5
      objectReference: {fileID: 0}
    - target: {fileID: 6886428399874818234, guid: 5cccbd15402a33a439fe3269124f7917,
        type: 3}
      propertyPath: m_LocalPosition.y
      value: 53
      objectReference: {fileID: 0}
    - target: {fileID: 6886428399874818234, guid: 5cccbd15402a33a439fe3269124f7917,
        type: 3}
      propertyPath: m_LocalPosition.z
      value: 64.2
      objectReference: {fileID: 0}
    - target: {fileID: 6886428399874818234, guid: 5cccbd15402a33a439fe3269124f7917,
        type: 3}
      propertyPath: m_LocalRotation.x
      value: 0
      objectReference: {fileID: 0}
    - target: {fileID: 6886428399874818234, guid: 5cccbd15402a33a439fe3269124f7917,
        type: 3}
      propertyPath: m_LocalRotation.y
      value: 0
      objectReference: {fileID: 0}
    - target: {fileID: 6886428399874818234, guid: 5cccbd15402a33a439fe3269124f7917,
        type: 3}
      propertyPath: m_LocalRotation.z
      value: 0
      objectReference: {fileID: 0}
    - target: {fileID: 6886428399874818234, guid: 5cccbd15402a33a439fe3269124f7917,
        type: 3}
      propertyPath: m_LocalRotation.w
      value: 1
      objectReference: {fileID: 0}
    - target: {fileID: 6886428399874818234, guid: 5cccbd15402a33a439fe3269124f7917,
        type: 3}
      propertyPath: m_RootOrder
      value: 3
      objectReference: {fileID: 0}
    - target: {fileID: 6886428399874818234, guid: 5cccbd15402a33a439fe3269124f7917,
        type: 3}
      propertyPath: m_LocalEulerAnglesHint.x
      value: 0
      objectReference: {fileID: 0}
    - target: {fileID: 6886428399874818234, guid: 5cccbd15402a33a439fe3269124f7917,
        type: 3}
      propertyPath: m_LocalEulerAnglesHint.y
      value: 0
      objectReference: {fileID: 0}
    - target: {fileID: 6886428399874818234, guid: 5cccbd15402a33a439fe3269124f7917,
        type: 3}
      propertyPath: m_LocalEulerAnglesHint.z
      value: 0
      objectReference: {fileID: 0}
    - target: {fileID: 6886428399874818238, guid: 5cccbd15402a33a439fe3269124f7917,
        type: 3}
      propertyPath: m_Name
      value: SUIMONO_Surface
      objectReference: {fileID: 0}
    - target: {fileID: 6886428399874818239, guid: 5cccbd15402a33a439fe3269124f7917,
        type: 3}
      propertyPath: systemLocalTime
      value: 9.484373
      objectReference: {fileID: 0}
    - target: {fileID: 6886428399874818239, guid: 5cccbd15402a33a439fe3269124f7917,
        type: 3}
      propertyPath: localTime
      value: 0.94843733
      objectReference: {fileID: 0}
    - target: {fileID: 6886428399874818239, guid: 5cccbd15402a33a439fe3269124f7917,
        type: 3}
      propertyPath: moduleObject
      value: 
      objectReference: {fileID: 1627203221}
    - target: {fileID: 6886428399874818239, guid: 5cccbd15402a33a439fe3269124f7917,
        type: 3}
      propertyPath: dir
      value: C:/dev/projects/unitygrounds/Assets/SUIMONO - WATER SYSTEM 2/RESOURCES/
      objectReference: {fileID: 0}
    - target: {fileID: 6886428399874818239, guid: 5cccbd15402a33a439fe3269124f7917,
        type: 3}
      propertyPath: skybox
      value: 
      objectReference: {fileID: 10304, guid: 0000000000000000f000000000000000, type: 0}
    - target: {fileID: 6886428399874818239, guid: 5cccbd15402a33a439fe3269124f7917,
        type: 3}
      propertyPath: pdir
      value: C:/dev/projects/unitygrounds/Assets/SUIMONO - WATER SYSTEM 2/RESOURCES//SUIMONO_PRESETS_Built-In
        Presets
      objectReference: {fileID: 0}
    m_RemovedComponents: []
  m_SourcePrefab: {fileID: 100100000, guid: 5cccbd15402a33a439fe3269124f7917, type: 3}
--- !u!1 &607298931
GameObject:
  m_ObjectHideFlags: 0
  m_CorrespondingSourceObject: {fileID: 0}
  m_PrefabInstance: {fileID: 0}
  m_PrefabAsset: {fileID: 0}
  serializedVersion: 6
  m_Component:
  - component: {fileID: 607298932}
  - component: {fileID: 607298934}
  - component: {fileID: 607298933}
  m_Layer: 0
  m_Name: Connection Objects
  m_TagString: Untagged
  m_Icon: {fileID: 0}
  m_NavMeshLayer: 0
  m_StaticEditorFlags: 0
  m_IsActive: 1
--- !u!4 &607298932
Transform:
  m_ObjectHideFlags: 0
  m_CorrespondingSourceObject: {fileID: 0}
  m_PrefabInstance: {fileID: 0}
  m_PrefabAsset: {fileID: 0}
  m_GameObject: {fileID: 607298931}
  m_LocalRotation: {x: 0, y: 0, z: 0, w: 1}
  m_LocalPosition: {x: 0, y: 0, z: 0}
  m_LocalScale: {x: 1, y: 1, z: 1}
  m_Children: []
  m_Father: {fileID: 2027957559}
  m_RootOrder: 0
  m_LocalEulerAnglesHint: {x: 0, y: 0, z: 0}
--- !u!114 &607298933
MonoBehaviour:
  m_ObjectHideFlags: 0
  m_CorrespondingSourceObject: {fileID: 0}
  m_PrefabInstance: {fileID: 0}
  m_PrefabAsset: {fileID: 0}
  m_GameObject: {fileID: 607298931}
  m_Enabled: 1
  m_EditorHideFlags: 0
  m_Script: {fileID: -1994553136, guid: f56d46228aee4734f9114056c53bb57e, type: 3}
  m_Name: 
  m_EditorClassIdentifier: 
--- !u!114 &607298934
MonoBehaviour:
  m_ObjectHideFlags: 0
  m_CorrespondingSourceObject: {fileID: 0}
  m_PrefabInstance: {fileID: 0}
  m_PrefabAsset: {fileID: 0}
  m_GameObject: {fileID: 607298931}
  m_Enabled: 1
  m_EditorHideFlags: 0
  m_Script: {fileID: 1419717442, guid: f56d46228aee4734f9114056c53bb57e, type: 3}
  m_Name: 
  m_EditorClassIdentifier: 
--- !u!1 &723543916
GameObject:
  m_ObjectHideFlags: 0
  m_CorrespondingSourceObject: {fileID: 0}
  m_PrefabInstance: {fileID: 0}
  m_PrefabAsset: {fileID: 0}
  serializedVersion: 6
  m_Component:
  - component: {fileID: 723543918}
  - component: {fileID: 723543917}
  m_Layer: 0
  m_Name: Directional Light
  m_TagString: Untagged
  m_Icon: {fileID: 0}
  m_NavMeshLayer: 0
  m_StaticEditorFlags: 0
  m_IsActive: 1
--- !u!108 &723543917
Light:
  m_ObjectHideFlags: 0
  m_CorrespondingSourceObject: {fileID: 0}
  m_PrefabInstance: {fileID: 0}
  m_PrefabAsset: {fileID: 0}
  m_GameObject: {fileID: 723543916}
  m_Enabled: 1
  serializedVersion: 10
  m_Type: 1
  m_Shape: 0
  m_Color: {r: 1, g: 0.95686275, b: 0.8392157, a: 1}
  m_Intensity: 1
  m_Range: 10
  m_SpotAngle: 30
  m_InnerSpotAngle: 21.80208
  m_CookieSize: 10
  m_Shadows:
    m_Type: 2
    m_Resolution: -1
    m_CustomResolution: -1
    m_Strength: 1
    m_Bias: 0.05
    m_NormalBias: 0.4
    m_NearPlane: 0.2
    m_CullingMatrixOverride:
      e00: 1
      e01: 0
      e02: 0
      e03: 0
      e10: 0
      e11: 1
      e12: 0
      e13: 0
      e20: 0
      e21: 0
      e22: 1
      e23: 0
      e30: 0
      e31: 0
      e32: 0
      e33: 1
    m_UseCullingMatrixOverride: 0
  m_Cookie: {fileID: 0}
  m_DrawHalo: 0
  m_Flare: {fileID: 0}
  m_RenderMode: 0
  m_CullingMask:
    serializedVersion: 2
    m_Bits: 4294967295
  m_RenderingLayerMask: 1
  m_Lightmapping: 4
  m_LightShadowCasterMode: 0
  m_AreaSize: {x: 1, y: 1}
  m_BounceIntensity: 1
  m_ColorTemperature: 6570
  m_UseColorTemperature: 0
  m_BoundingSphereOverride: {x: 0, y: 0, z: 0, w: 0}
  m_UseBoundingSphereOverride: 0
  m_ShadowRadius: 0
  m_ShadowAngle: 0
--- !u!4 &723543918
Transform:
  m_ObjectHideFlags: 0
  m_CorrespondingSourceObject: {fileID: 0}
  m_PrefabInstance: {fileID: 0}
  m_PrefabAsset: {fileID: 0}
  m_GameObject: {fileID: 723543916}
  m_LocalRotation: {x: 0.40821788, y: -0.23456968, z: 0.10938163, w: 0.8754261}
  m_LocalPosition: {x: 0, y: 3, z: 0}
  m_LocalScale: {x: 1, y: 1, z: 1}
  m_Children: []
  m_Father: {fileID: 0}
  m_RootOrder: 1
  m_LocalEulerAnglesHint: {x: 50, y: -30, z: 0}
--- !u!114 &841237961 stripped
MonoBehaviour:
  m_CorrespondingSourceObject: {fileID: 6886428399874818239, guid: 5cccbd15402a33a439fe3269124f7917,
    type: 3}
  m_PrefabInstance: {fileID: 587476772}
  m_PrefabAsset: {fileID: 0}
  m_GameObject: {fileID: 0}
  m_Enabled: 1
  m_EditorHideFlags: 0
  m_Script: {fileID: 11500000, guid: caeb605cd9a3ef74f8fb2d33b6880d8a, type: 3}
  m_Name: 
  m_EditorClassIdentifier: 
--- !u!4 &841237962 stripped
Transform:
  m_CorrespondingSourceObject: {fileID: 6886428399874818234, guid: 5cccbd15402a33a439fe3269124f7917,
    type: 3}
  m_PrefabInstance: {fileID: 587476772}
  m_PrefabAsset: {fileID: 0}
--- !u!1 &857060191
GameObject:
  m_ObjectHideFlags: 0
  m_CorrespondingSourceObject: {fileID: 0}
  m_PrefabInstance: {fileID: 0}
  m_PrefabAsset: {fileID: 0}
  serializedVersion: 6
  m_Component:
  - component: {fileID: 857060192}
  - component: {fileID: 857060194}
  - component: {fileID: 857060193}
  m_Layer: 5
  m_Name: Text (TMP)
  m_TagString: Untagged
  m_Icon: {fileID: 0}
  m_NavMeshLayer: 0
  m_StaticEditorFlags: 0
  m_IsActive: 1
--- !u!224 &857060192
RectTransform:
  m_ObjectHideFlags: 0
  m_CorrespondingSourceObject: {fileID: 0}
  m_PrefabInstance: {fileID: 0}
  m_PrefabAsset: {fileID: 0}
  m_GameObject: {fileID: 857060191}
  m_LocalRotation: {x: 0, y: 0, z: 0, w: 1}
  m_LocalPosition: {x: 0, y: 0, z: 0}
  m_LocalScale: {x: 1, y: 1, z: 1}
  m_Children: []
  m_Father: {fileID: 1541626338}
  m_RootOrder: 0
  m_LocalEulerAnglesHint: {x: 0, y: 0, z: 0}
  m_AnchorMin: {x: 0, y: 1}
  m_AnchorMax: {x: 1, y: 1}
  m_AnchoredPosition: {x: 0, y: 0}
  m_SizeDelta: {x: 0, y: 50}
  m_Pivot: {x: 0.5, y: 1}
--- !u!114 &857060193
MonoBehaviour:
  m_ObjectHideFlags: 0
  m_CorrespondingSourceObject: {fileID: 0}
  m_PrefabInstance: {fileID: 0}
  m_PrefabAsset: {fileID: 0}
  m_GameObject: {fileID: 857060191}
  m_Enabled: 1
  m_EditorHideFlags: 0
  m_Script: {fileID: 11500000, guid: f4688fdb7df04437aeb418b961361dc5, type: 3}
  m_Name: 
  m_EditorClassIdentifier: 
  m_Material: {fileID: 0}
  m_Color: {r: 1, g: 1, b: 1, a: 1}
  m_RaycastTarget: 1
  m_Maskable: 1
  m_OnCullStateChanged:
    m_PersistentCalls:
      m_Calls: []
  m_text: UnityGrounds
  m_isRightToLeft: 0
  m_fontAsset: {fileID: 11400000, guid: 8f586378b4e144a9851e7b34d9b748ee, type: 2}
  m_sharedMaterial: {fileID: 2180264, guid: 8f586378b4e144a9851e7b34d9b748ee, type: 2}
  m_fontSharedMaterials: []
  m_fontMaterial: {fileID: 0}
  m_fontMaterials: []
  m_fontColor32:
    serializedVersion: 2
    rgba: 4281545523
  m_fontColor: {r: 0.2, g: 0.2, b: 0.2, a: 1}
  m_enableVertexGradient: 0
  m_colorMode: 3
  m_fontColorGradient:
    topLeft: {r: 1, g: 1, b: 1, a: 1}
    topRight: {r: 1, g: 1, b: 1, a: 1}
    bottomLeft: {r: 1, g: 1, b: 1, a: 1}
    bottomRight: {r: 1, g: 1, b: 1, a: 1}
  m_fontColorGradientPreset: {fileID: 0}
  m_spriteAsset: {fileID: 0}
  m_tintAllSprites: 0
  m_overrideHtmlColors: 0
  m_faceColor:
    serializedVersion: 2
    rgba: 4294967295
  m_outlineColor:
    serializedVersion: 2
    rgba: 4278190080
  m_fontSize: 36
  m_fontSizeBase: 36
  m_fontWeight: 400
  m_enableAutoSizing: 0
  m_fontSizeMin: 18
  m_fontSizeMax: 72
  m_fontStyle: 0
  m_textAlignment: 513
  m_characterSpacing: 0
  m_wordSpacing: 0
  m_lineSpacing: 0
  m_lineSpacingMax: 0
  m_paragraphSpacing: 0
  m_charWidthMaxAdj: 0
  m_enableWordWrapping: 1
  m_wordWrappingRatios: 0.4
  m_overflowMode: 0
  m_firstOverflowCharacterIndex: -1
  m_linkedTextComponent: {fileID: 0}
  m_isLinkedTextComponent: 0
  m_isTextTruncated: 0
  m_enableKerning: 1
  m_enableExtraPadding: 0
  checkPaddingRequired: 0
  m_isRichText: 1
  m_parseCtrlCharacters: 1
  m_isOrthographic: 1
  m_isCullingEnabled: 0
  m_ignoreRectMaskCulling: 0
  m_ignoreCulling: 1
  m_horizontalMapping: 0
  m_verticalMapping: 0
  m_uvLineOffset: 0
  m_geometrySortingOrder: 0
  m_VertexBufferAutoSizeReduction: 1
  m_firstVisibleCharacter: 0
  m_useMaxVisibleDescender: 1
  m_pageToDisplay: 1
  m_margin: {x: 0, y: 0, z: -185.68207, w: 0}
  m_textInfo:
    textComponent: {fileID: 857060193}
    characterCount: 12
    spriteCount: 0
    spaceCount: 0
    wordCount: 1
    linkCount: 0
    lineCount: 1
    pageCount: 1
    materialCount: 1
  m_isUsingLegacyAnimationComponent: 0
  m_isVolumetricText: 0
  m_spriteAnimator: {fileID: 0}
  m_hasFontAssetChanged: 0
  m_subTextObjects:
  - {fileID: 0}
  - {fileID: 0}
  - {fileID: 0}
  - {fileID: 0}
  - {fileID: 0}
  - {fileID: 0}
  - {fileID: 0}
  - {fileID: 0}
  m_baseMaterial: {fileID: 0}
  m_maskOffset: {x: 0, y: 0, z: 0, w: 0}
--- !u!222 &857060194
CanvasRenderer:
  m_ObjectHideFlags: 0
  m_CorrespondingSourceObject: {fileID: 0}
  m_PrefabInstance: {fileID: 0}
  m_PrefabAsset: {fileID: 0}
  m_GameObject: {fileID: 857060191}
  m_CullTransparentMesh: 0
--- !u!1 &1061375258
GameObject:
  m_ObjectHideFlags: 0
  m_CorrespondingSourceObject: {fileID: 0}
  m_PrefabInstance: {fileID: 0}
  m_PrefabAsset: {fileID: 0}
  serializedVersion: 6
  m_Component:
  - component: {fileID: 1061375259}
  - component: {fileID: 1061375260}
  m_Layer: 0
  m_Name: Road Objects
  m_TagString: Untagged
  m_Icon: {fileID: 0}
  m_NavMeshLayer: 0
  m_StaticEditorFlags: 0
  m_IsActive: 1
--- !u!4 &1061375259
Transform:
  m_ObjectHideFlags: 0
  m_CorrespondingSourceObject: {fileID: 0}
  m_PrefabInstance: {fileID: 0}
  m_PrefabAsset: {fileID: 0}
  m_GameObject: {fileID: 1061375258}
  m_LocalRotation: {x: 0, y: 0, z: 0, w: 1}
  m_LocalPosition: {x: 0, y: 0, z: 0}
  m_LocalScale: {x: 1, y: 1, z: 1}
  m_Children: []
  m_Father: {fileID: 2027957559}
  m_RootOrder: 1
  m_LocalEulerAnglesHint: {x: 0, y: 0, z: 0}
--- !u!114 &1061375260
MonoBehaviour:
  m_ObjectHideFlags: 0
  m_CorrespondingSourceObject: {fileID: 0}
  m_PrefabInstance: {fileID: 0}
  m_PrefabAsset: {fileID: 0}
  m_GameObject: {fileID: 1061375258}
  m_Enabled: 1
  m_EditorHideFlags: 0
  m_Script: {fileID: -1994553136, guid: f56d46228aee4734f9114056c53bb57e, type: 3}
  m_Name: 
  m_EditorClassIdentifier: 
--- !u!21 &1154793579
Material:
  serializedVersion: 6
  m_ObjectHideFlags: 0
  m_CorrespondingSourceObject: {fileID: 0}
  m_PrefabInstance: {fileID: 0}
  m_PrefabAsset: {fileID: 0}
  m_Name: mat_water_surface
  m_Shader: {fileID: 4800000, guid: 5af3fd41baf694e4db80b54ea540749f, type: 3}
  m_ShaderKeywords: SUIMONO_CAUST_ON SUIMONO_DYNREFL_ON SUIMONO_REFL_OFF SUIMONO_TESS_ON
    SUIMONO_TRANS_ON
  m_LightmapFlags: 5
  m_EnableInstancingVariants: 0
  m_DoubleSidedGI: 0
  m_CustomRenderQueue: -1
  stringTagMap: {}
  disabledShaderPasses: []
  m_SavedProperties:
    serializedVersion: 3
    m_TexEnvs:
    - _BlurRamp:
        m_Texture: {fileID: 2800000, guid: e607ea0d8431dc64c8f345a02a1028e9, type: 3}
        m_Scale: {x: 1, y: 1}
        m_Offset: {x: 0, y: 0}
    - _CubeBDRF:
        m_Texture: {fileID: 8900000, guid: 01c62ce94e46dcf4ea217e771c6da1b2, type: 3}
        m_Scale: {x: 1, y: 1}
        m_Offset: {x: 0, y: 0}
    - _CubeMobile:
        m_Texture: {fileID: 8900000, guid: c27d2f9a7fe1df7448a59cd7e8306390, type: 3}
        m_Scale: {x: 1, y: 1}
        m_Offset: {x: 0, y: 0}
    - _CubeTex:
        m_Texture: {fileID: 8900000, guid: c27d2f9a7fe1df7448a59cd7e8306390, type: 3}
        m_Scale: {x: 1, y: 1}
        m_Offset: {x: 0, y: 0}
    - _DepthRamp:
        m_Texture: {fileID: 2800000, guid: aa1f666bea9a5b2409ff3dcfc008a57c, type: 3}
        m_Scale: {x: 1, y: 1}
        m_Offset: {x: 0, y: 0}
    - _FlowMap:
        m_Texture: {fileID: 0}
        m_Scale: {x: 1, y: 1}
        m_Offset: {x: 0, y: 0}
    - _FoamOverlay:
        m_Texture: {fileID: 2800000, guid: dd5f830482b013a43b967ea68de614d7, type: 3}
        m_Scale: {x: 0.781425, y: 0.781425}
        m_Offset: {x: 0, y: 0}
    - _FoamRamp:
        m_Texture: {fileID: 2800000, guid: 01757909dcbf805408fe7867004a31a3, type: 3}
        m_Scale: {x: 1, y: 1}
        m_Offset: {x: 0, y: 0}
    - _FoamTex:
        m_Texture: {fileID: 2800000, guid: 14c55ed649175884784db6c178f4e654, type: 3}
        m_Scale: {x: 1, y: 1}
        m_Offset: {x: 0, y: 0}
    - _HeightTex:
        m_Texture: {fileID: 2800000, guid: 51323bc64857e644fac7400eb7305b36, type: 3}
        m_Scale: {x: 2, y: 2}
        m_Offset: {x: 0, y: 0}
    - _HeightTexD:
        m_Texture: {fileID: 2800000, guid: 5068c41d8b2d8474a855de152aea3721, type: 3}
        m_Scale: {x: 1, y: 1}
        m_Offset: {x: 0, y: 0}
    - _HeightTexR:
        m_Texture: {fileID: 2800000, guid: 17e80c508914f384083dc7e9d438652f, type: 3}
        m_Scale: {x: 1, y: 1}
        m_Offset: {x: 0, y: 0}
    - _MainTex:
        m_Texture: {fileID: 0}
        m_Scale: {x: 1, y: 1}
        m_Offset: {x: 0, y: 0}
    - _MaskTex:
        m_Texture: {fileID: 2800000, guid: e18972d51c4910d499b05f09d48dc145, type: 3}
        m_Scale: {x: 1, y: 1}
        m_Offset: {x: 0, y: 0}
    - _NormalTex:
        m_Texture: {fileID: 2800000, guid: 48e29dc2e9488474081bc20a42a364b9, type: 3}
        m_Scale: {x: 1, y: 1}
        m_Offset: {x: 0, y: 0}
    - _NormalTexD:
        m_Texture: {fileID: 2800000, guid: fdd39131993ce804da86a2e71c17a742, type: 3}
        m_Scale: {x: 1, y: 1}
        m_Offset: {x: 0, y: 0}
    - _NormalTexR:
        m_Texture: {fileID: 2800000, guid: fb77700eb10ac344db495df815b29823, type: 3}
        m_Scale: {x: 1, y: 1}
        m_Offset: {x: 0, y: 0}
    - _NormalTexS:
        m_Texture: {fileID: 2800000, guid: 48e29dc2e9488474081bc20a42a364b9, type: 3}
        m_Scale: {x: 2, y: 2}
        m_Offset: {x: 0, y: 0}
    - _OceanBlendTex:
        m_Texture: {fileID: 2800000, guid: e18972d51c4910d499b05f09d48dc145, type: 3}
        m_Scale: {x: 1, y: 1}
        m_Offset: {x: 0, y: 0}
    - _Ramp2D:
        m_Texture: {fileID: 0}
        m_Scale: {x: 1, y: 1}
        m_Offset: {x: 0, y: 0}
    - _ReflectionTex:
        m_Texture: {fileID: 1648721214}
        m_Scale: {x: 1, y: 1}
        m_Offset: {x: 0, y: 0}
    - _Surface1:
        m_Texture: {fileID: 2800000, guid: 51323bc64857e644fac7400eb7305b36, type: 3}
        m_Scale: {x: 4.62, y: 4.62}
        m_Offset: {x: 0, y: 0.038000003}
    - _Surface2:
        m_Texture: {fileID: 2800000, guid: 51323bc64857e644fac7400eb7305b36, type: 3}
        m_Scale: {x: 5.25, y: 5.25}
        m_Offset: {x: 0, y: 0}
    - _WaveLargeTex:
        m_Texture: {fileID: 2800000, guid: 48e29dc2e9488474081bc20a42a364b9, type: 3}
        m_Scale: {x: 5.25, y: 5.25}
        m_Offset: {x: 0, y: 1}
    - _WaveMap:
        m_Texture: {fileID: 0}
        m_Scale: {x: 1, y: 1}
        m_Offset: {x: 0, y: 0}
    - _WaveRamp:
        m_Texture: {fileID: 2800000, guid: 7d47d30a7e6fff544a72f826670ef31b, type: 3}
        m_Scale: {x: 1, y: 1}
        m_Offset: {x: 0, y: 0}
    - _WaveTex:
        m_Texture: {fileID: 2800000, guid: 9e0b039b60bba5c4ea73849d69af386a, type: 3}
        m_Scale: {x: 1, y: 1}
        m_Offset: {x: 0, y: 0}
    - _testTransTex:
        m_Texture: {fileID: 8400000, guid: 4cbb053dd78893346b31535310230dc4, type: 2}
        m_Scale: {x: 1, y: 1}
        m_Offset: {x: 0, y: 0}
    m_Floats:
    - _AnimSpeed: 1
    - _BlurSpread: 0
    - _BumpStrength: 0.084
    - _CausticsFade: 61.878002
    - _CenterHeight: 1
    - _DepthAmt: 45
    - _DepthFade: 12.8936
    - _DetailHeight: 1.63
    - _Displacement: 1
    - _EdgeBlend: 1
    - _EdgeFade: 73.36
    - _EdgeFoamFade: 105.164955
    - _EdgeSpread: 0.02
    - _FlowScale: 6.0895004
    - _FoamFade: 1
    - _FoamHeight: 0
    - _FoamSpread: 0.85
    - _HeightFoamAmount: 0
    - _HeightFoamAmt: 0.85
    - _HeightFoamHeight: 0.65
    - _HeightFoamSpread: 0.276
    - _MaskAmt: 8
    - _MasterScale: 2.25
    - _MaxVariance: 8.299999
    - _NormalStrength: 1
    - _ReflBlend: 0.015
    - _ReflBlur: 0.01
    - _ReflDist: 200
    - _ReflectStrength: 1
    - _RefrScale: 2.25
    - _RefrSpeed: 15.2
    - _RefrStrength: 0
    - _RefractFade: 1
    - _RefractStrength: 0.5
    - _RimPower: 1
    - _ShallowFade: 45.6943
    - _ShallowFoamAmt: 1
    - _ShoreAmt: -3.5
    - _ShoreAmtDk: 1
    - _SpecScatterAmt: 0.5
    - _SpecScatterWidth: 0.1
    - _Tess: 8
    - _TideAmount: 0.3
    - _TideSpread: 0.513
    - _UnderFogDist: -0.054
    - _UnderReflDist: -4.28
    - _WaveHeight: 0.63
    - _WaveScale: 0.605
    - _WaveShoreHeight: 0
    - _castshadowEnabled: 1
    - _castshadowFade: 1
    - _castshadowStrength: 1
    - _foamScale: 10.54
    - _maxDist: 58.399998
    - _minDist: -180
    - _reflecTerm: 0
    - _shorelineFrequency: 1
    - _shorelineHeight: 0.25
    - _shorelineScale: 0.1
    - _shorelineSpeed: 4
    - _suimono_DeepWaveHeight: 0.945
    - _suimono_DetailHeight: 1.63
    - _suimono_detScale: 0.19
    - _suimono_uv2x: 0
    - _suimono_uv2y: 0
    - _suimono_uv3x: 0
    - _suimono_uv3y: 0
    - _suimono_uv4x: 0
    - _suimono_uv4y: 0
    - _suimono_uv5x: 0
    - _suimono_uv5y: 0
    - _suimono_uv6x: 0
    - _suimono_uv6y: 0
    - _suimono_uv7x: 0
    - _suimono_uv7y: 0
    - _suimono_uv8x: 1
    - _suimono_uv8y: 1
    - _suimono_uvx: 0
    - _suimono_uvy: 0
    - _temp: 1
    - _useDynamicReflections: 1
    - normalShore: 1
    m_Colors:
    - _BlendColor: {r: 0.36, g: 1, b: 0.867, a: 0.22}
    - _CausticsColor: {r: 1, g: 1, b: 1, a: 1}
    - _Color: {r: 1, g: 1, b: 1, a: 1}
    - _DepthColor: {r: 0, g: 0, b: 0, a: 0}
    - _DepthColorB: {r: 1, g: 0.44, b: 0, a: 1}
    - _DepthColorG: {r: 1, g: 1, b: 1, a: 0}
    - _DepthColorR: {r: 1, g: 1, b: 1, a: 0}
    - _DynReflColor: {r: 1, g: 1, b: 1, a: 0.5}
    - _EdgeColor: {r: 0.73, g: 1, b: 0.94, a: 0}
    - _FoamColor: {r: 0.912, g: 0.874, b: 0.791, a: 1}
    - _HighColor: {r: 0, g: 0, b: 0, a: 0.9}
    - _LowColor: {r: 0.34, g: 0.26, b: 0.18, a: 0.15}
    - _OverlayColor: {r: 0, g: 0, b: 0, a: 0}
    - _ReflectionColor: {r: 1, g: 1, b: 1, a: 0.376}
    - _SSSColor: {r: 0, g: 0.324, b: 0.015, a: 0.239}
    - _SpecColorH: {r: 1, g: 0.48, b: 0, a: 1}
    - _SpecColorL: {r: 1, g: 0, b: 0, a: 1}
    - _SpecularColor: {r: 0.063, g: 0.326, b: 0.375, a: 0.161}
    - _TideColor: {r: 0.24, g: 0.34, b: 0.32, a: 0}
    - _TintColor: {r: 0.5, g: 0.5, b: 0.5, a: 0.5}
    - _UnderColor: {r: 1, g: 0.62, b: 0.17, a: 1}
    - _UnderwaterColor: {r: 0.034, g: 0.102, b: 0.154, a: 0.404}
    - _castshadowColor: {r: 0, g: 1, b: 0.79, a: 0.18}
    - _depthColor: {r: 0.16, g: 0.281, b: 0.382, a: 1}
    - _shallowColor: {r: 0.208, g: 0.373, b: 0.441, a: 0.784}
--- !u!84 &1241847270
RenderTexture:
  m_ObjectHideFlags: 0
  m_CorrespondingSourceObject: {fileID: 0}
  m_PrefabInstance: {fileID: 0}
  m_PrefabAsset: {fileID: 0}
  m_Name: 
  m_ImageContentsHash:
    serializedVersion: 2
    Hash: 00000000000000000000000000000000
  m_ForcedFallbackFormat: 4
  m_DownscaleFallback: 0
  serializedVersion: 3
  m_Width: 512
  m_Height: 512
  m_AntiAliasing: 1
  m_MipCount: -1
  m_DepthFormat: 2
  m_ColorFormat: 52
  m_MipMap: 0
  m_GenerateMips: 0
  m_SRGB: 0
  m_UseDynamicScale: 0
  m_BindMS: 0
  m_EnableCompatibleFormat: 1
  m_TextureSettings:
    serializedVersion: 2
    m_FilterMode: 2
    m_Aniso: 1
    m_MipBias: 0
    m_WrapU: 1
    m_WrapV: 1
    m_WrapW: 1
  m_Dimension: 2
  m_VolumeDepth: 1
--- !u!1 &1308090870
GameObject:
  m_ObjectHideFlags: 0
  m_CorrespondingSourceObject: {fileID: 0}
  m_PrefabInstance: {fileID: 0}
  m_PrefabAsset: {fileID: 0}
  serializedVersion: 6
  m_Component:
  - component: {fileID: 1308090873}
  - component: {fileID: 1308090872}
  - component: {fileID: 1308090871}
  m_Layer: 0
  m_Name: EventSystem
  m_TagString: Untagged
  m_Icon: {fileID: 0}
  m_NavMeshLayer: 0
  m_StaticEditorFlags: 0
  m_IsActive: 1
--- !u!114 &1308090871
MonoBehaviour:
  m_ObjectHideFlags: 0
  m_CorrespondingSourceObject: {fileID: 0}
  m_PrefabInstance: {fileID: 0}
  m_PrefabAsset: {fileID: 0}
  m_GameObject: {fileID: 1308090870}
  m_Enabled: 1
  m_EditorHideFlags: 0
  m_Script: {fileID: 11500000, guid: 4f231c4fb786f3946a6b90b886c48677, type: 3}
  m_Name: 
  m_EditorClassIdentifier: 
  m_HorizontalAxis: Horizontal
  m_VerticalAxis: Vertical
  m_SubmitButton: Submit
  m_CancelButton: Cancel
  m_InputActionsPerSecond: 10
  m_RepeatDelay: 0.5
  m_ForceModuleActive: 0
--- !u!114 &1308090872
MonoBehaviour:
  m_ObjectHideFlags: 0
  m_CorrespondingSourceObject: {fileID: 0}
  m_PrefabInstance: {fileID: 0}
  m_PrefabAsset: {fileID: 0}
  m_GameObject: {fileID: 1308090870}
  m_Enabled: 1
  m_EditorHideFlags: 0
  m_Script: {fileID: 11500000, guid: 76c392e42b5098c458856cdf6ecaaaa1, type: 3}
  m_Name: 
  m_EditorClassIdentifier: 
  m_FirstSelected: {fileID: 0}
  m_sendNavigationEvents: 1
  m_DragThreshold: 10
--- !u!4 &1308090873
Transform:
  m_ObjectHideFlags: 0
  m_CorrespondingSourceObject: {fileID: 0}
  m_PrefabInstance: {fileID: 0}
  m_PrefabAsset: {fileID: 0}
  m_GameObject: {fileID: 1308090870}
  m_LocalRotation: {x: 0, y: 0, z: 0, w: 1}
  m_LocalPosition: {x: 0, y: 0, z: 0}
  m_LocalScale: {x: 1, y: 1, z: 1}
  m_Children: []
  m_Father: {fileID: 0}
  m_RootOrder: 5
  m_LocalEulerAnglesHint: {x: 0, y: 0, z: 0}
--- !u!84 &1321194915
RenderTexture:
  m_ObjectHideFlags: 0
  m_CorrespondingSourceObject: {fileID: 0}
  m_PrefabInstance: {fileID: 0}
  m_PrefabAsset: {fileID: 0}
  m_Name: 
  m_ImageContentsHash:
    serializedVersion: 2
    Hash: 00000000000000000000000000000000
  m_ForcedFallbackFormat: 4
  m_DownscaleFallback: 0
  serializedVersion: 3
  m_Width: 128
  m_Height: 128
  m_AntiAliasing: 1
  m_MipCount: -1
  m_DepthFormat: 2
  m_ColorFormat: 52
  m_MipMap: 0
  m_GenerateMips: 0
  m_SRGB: 0
  m_UseDynamicScale: 0
  m_BindMS: 0
  m_EnableCompatibleFormat: 1
  m_TextureSettings:
    serializedVersion: 2
    m_FilterMode: 2
    m_Aniso: 1
    m_MipBias: 0
    m_WrapU: 1
    m_WrapV: 1
    m_WrapW: 1
  m_Dimension: 2
  m_VolumeDepth: 1
--- !u!1 &1396163133
GameObject:
  m_ObjectHideFlags: 0
  m_CorrespondingSourceObject: {fileID: 0}
  m_PrefabInstance: {fileID: 0}
  m_PrefabAsset: {fileID: 0}
  serializedVersion: 6
  m_Component:
  - component: {fileID: 1396163136}
  - component: {fileID: 1396163135}
  - component: {fileID: 1396163134}
  m_Layer: 0
  m_Name: Terrain
  m_TagString: Untagged
  m_Icon: {fileID: 0}
  m_NavMeshLayer: 0
  m_StaticEditorFlags: 4294967295
  m_IsActive: 1
--- !u!154 &1396163134
TerrainCollider:
  m_ObjectHideFlags: 0
  m_CorrespondingSourceObject: {fileID: 0}
  m_PrefabInstance: {fileID: 0}
  m_PrefabAsset: {fileID: 0}
  m_GameObject: {fileID: 1396163133}
  m_Material: {fileID: 0}
  m_Enabled: 1
  m_TerrainData: {fileID: 15600000, guid: 396003ddc8d665c46a428a21987f98a6, type: 2}
  m_EnableTreeColliders: 1
--- !u!218 &1396163135
Terrain:
  m_ObjectHideFlags: 0
  m_CorrespondingSourceObject: {fileID: 0}
  m_PrefabInstance: {fileID: 0}
  m_PrefabAsset: {fileID: 0}
  m_GameObject: {fileID: 1396163133}
  m_Enabled: 1
  serializedVersion: 6
  m_TerrainData: {fileID: 15600000, guid: 396003ddc8d665c46a428a21987f98a6, type: 2}
  m_TreeDistance: 5000
  m_TreeBillboardDistance: 50
  m_TreeCrossFadeLength: 5
  m_TreeMaximumFullLODCount: 50
  m_DetailObjectDistance: 80
  m_DetailObjectDensity: 1
  m_HeightmapPixelError: 5
  m_SplatMapDistance: 1000
  m_HeightmapMaximumLOD: 0
  m_ShadowCastingMode: 2
  m_DrawHeightmap: 1
  m_DrawInstanced: 0
  m_DrawTreesAndFoliage: 1
  m_ReflectionProbeUsage: 1
  m_MaterialTemplate: {fileID: 10652, guid: 0000000000000000f000000000000000, type: 0}
  m_BakeLightProbesForTrees: 1
  m_PreserveTreePrototypeLayers: 0
  m_DeringLightProbesForTrees: 1
  m_ScaleInLightmap: 0.0256
  m_LightmapParameters: {fileID: 15203, guid: 0000000000000000f000000000000000, type: 0}
  m_GroupingID: 0
  m_RenderingLayerMask: 1
  m_AllowAutoConnect: 1
--- !u!4 &1396163136
Transform:
  m_ObjectHideFlags: 0
  m_CorrespondingSourceObject: {fileID: 0}
  m_PrefabInstance: {fileID: 0}
  m_PrefabAsset: {fileID: 0}
  m_GameObject: {fileID: 1396163133}
  m_LocalRotation: {x: 0, y: 0, z: 0, w: 1}
  m_LocalPosition: {x: 0, y: 0, z: 0}
  m_LocalScale: {x: 1, y: 1, z: 1}
  m_Children: []
  m_Father: {fileID: 0}
  m_RootOrder: 7
  m_LocalEulerAnglesHint: {x: 0, y: 0, z: 0}
--- !u!1 &1541626334
GameObject:
  m_ObjectHideFlags: 0
  m_CorrespondingSourceObject: {fileID: 0}
  m_PrefabInstance: {fileID: 0}
  m_PrefabAsset: {fileID: 0}
  serializedVersion: 6
  m_Component:
  - component: {fileID: 1541626338}
  - component: {fileID: 1541626337}
  - component: {fileID: 1541626336}
  - component: {fileID: 1541626335}
  m_Layer: 5
  m_Name: Canvas
  m_TagString: Untagged
  m_Icon: {fileID: 0}
  m_NavMeshLayer: 0
  m_StaticEditorFlags: 0
  m_IsActive: 1
--- !u!114 &1541626335
MonoBehaviour:
  m_ObjectHideFlags: 0
  m_CorrespondingSourceObject: {fileID: 0}
  m_PrefabInstance: {fileID: 0}
  m_PrefabAsset: {fileID: 0}
  m_GameObject: {fileID: 1541626334}
  m_Enabled: 1
  m_EditorHideFlags: 0
  m_Script: {fileID: 11500000, guid: dc42784cf147c0c48a680349fa168899, type: 3}
  m_Name: 
  m_EditorClassIdentifier: 
  m_IgnoreReversedGraphics: 1
  m_BlockingObjects: 0
  m_BlockingMask:
    serializedVersion: 2
    m_Bits: 4294967295
--- !u!114 &1541626336
MonoBehaviour:
  m_ObjectHideFlags: 0
  m_CorrespondingSourceObject: {fileID: 0}
  m_PrefabInstance: {fileID: 0}
  m_PrefabAsset: {fileID: 0}
  m_GameObject: {fileID: 1541626334}
  m_Enabled: 1
  m_EditorHideFlags: 0
  m_Script: {fileID: 11500000, guid: 0cd44c1031e13a943bb63640046fad76, type: 3}
  m_Name: 
  m_EditorClassIdentifier: 
  m_UiScaleMode: 0
  m_ReferencePixelsPerUnit: 100
  m_ScaleFactor: 1
  m_ReferenceResolution: {x: 800, y: 600}
  m_ScreenMatchMode: 0
  m_MatchWidthOrHeight: 0
  m_PhysicalUnit: 3
  m_FallbackScreenDPI: 96
  m_DefaultSpriteDPI: 96
  m_DynamicPixelsPerUnit: 1
--- !u!223 &1541626337
Canvas:
  m_ObjectHideFlags: 0
  m_CorrespondingSourceObject: {fileID: 0}
  m_PrefabInstance: {fileID: 0}
  m_PrefabAsset: {fileID: 0}
  m_GameObject: {fileID: 1541626334}
  m_Enabled: 1
  serializedVersion: 3
  m_RenderMode: 0
  m_Camera: {fileID: 0}
  m_PlaneDistance: 100
  m_PixelPerfect: 0
  m_ReceivesEvents: 1
  m_OverrideSorting: 0
  m_OverridePixelPerfect: 0
  m_SortingBucketNormalizedSize: 0
  m_AdditionalShaderChannelsFlag: 25
  m_SortingLayerID: 0
  m_SortingOrder: 0
  m_TargetDisplay: 0
--- !u!224 &1541626338
RectTransform:
  m_ObjectHideFlags: 0
  m_CorrespondingSourceObject: {fileID: 0}
  m_PrefabInstance: {fileID: 0}
  m_PrefabAsset: {fileID: 0}
  m_GameObject: {fileID: 1541626334}
  m_LocalRotation: {x: 0, y: 0, z: 0, w: 1}
  m_LocalPosition: {x: 0, y: 0, z: 0}
  m_LocalScale: {x: 0, y: 0, z: 0}
  m_Children:
  - {fileID: 857060192}
  m_Father: {fileID: 0}
  m_RootOrder: 4
  m_LocalEulerAnglesHint: {x: 0, y: 0, z: 0}
  m_AnchorMin: {x: 0, y: 0}
  m_AnchorMax: {x: 0, y: 0}
  m_AnchoredPosition: {x: 0, y: 0}
  m_SizeDelta: {x: 0, y: 0}
  m_Pivot: {x: 0, y: 0}
--- !u!84 &1587012467
RenderTexture:
  m_ObjectHideFlags: 0
  m_CorrespondingSourceObject: {fileID: 0}
  m_PrefabInstance: {fileID: 0}
  m_PrefabAsset: {fileID: 0}
  m_Name: 
  m_ImageContentsHash:
    serializedVersion: 2
    Hash: 00000000000000000000000000000000
  m_ForcedFallbackFormat: 4
  m_DownscaleFallback: 0
  serializedVersion: 3
  m_Width: 512
  m_Height: 512
  m_AntiAliasing: 1
  m_MipCount: -1
  m_DepthFormat: 2
  m_ColorFormat: 52
  m_MipMap: 0
  m_GenerateMips: 0
  m_SRGB: 0
  m_UseDynamicScale: 0
  m_BindMS: 0
  m_EnableCompatibleFormat: 1
  m_TextureSettings:
    serializedVersion: 2
    m_FilterMode: 2
    m_Aniso: 1
    m_MipBias: 0
    m_WrapU: 1
    m_WrapV: 1
    m_WrapW: 1
  m_Dimension: 2
  m_VolumeDepth: 1
--- !u!114 &1627203221 stripped
MonoBehaviour:
  m_CorrespondingSourceObject: {fileID: 7929433183987282562, guid: 709feab55137d3247b9c3439ab52c932,
    type: 3}
  m_PrefabInstance: {fileID: 1738459028}
  m_PrefabAsset: {fileID: 0}
  m_GameObject: {fileID: 0}
  m_Enabled: 1
  m_EditorHideFlags: 0
  m_Script: {fileID: 11500000, guid: 87c5141853cbab7438b034790b1a108f, type: 3}
  m_Name: 
  m_EditorClassIdentifier: 
--- !u!84 &1648721214
RenderTexture:
  m_ObjectHideFlags: 0
  m_CorrespondingSourceObject: {fileID: 0}
  m_PrefabInstance: {fileID: 0}
  m_PrefabAsset: {fileID: 0}
  m_Name: 
  m_ImageContentsHash:
    serializedVersion: 2
    Hash: 00000000000000000000000000000000
  m_ForcedFallbackFormat: 4
  m_DownscaleFallback: 0
  serializedVersion: 3
  m_Width: 512
  m_Height: 512
  m_AntiAliasing: 1
  m_MipCount: -1
  m_DepthFormat: 2
  m_ColorFormat: 52
  m_MipMap: 0
  m_GenerateMips: 0
  m_SRGB: 0
  m_UseDynamicScale: 0
  m_BindMS: 0
  m_EnableCompatibleFormat: 1
  m_TextureSettings:
    serializedVersion: 2
    m_FilterMode: 2
    m_Aniso: 1
    m_MipBias: 0
    m_WrapU: 1
    m_WrapV: 1
    m_WrapW: 1
  m_Dimension: 2
  m_VolumeDepth: 1
--- !u!1001 &1738459028
PrefabInstance:
  m_ObjectHideFlags: 0
  serializedVersion: 2
  m_Modification:
    m_TransformParent: {fileID: 0}
    m_Modifications:
    - target: {fileID: 7929433183987282562, guid: 709feab55137d3247b9c3439ab52c932,
        type: 3}
      propertyPath: systemTime
      value: 11.658614
      objectReference: {fileID: 0}
    - target: {fileID: 7929433183987282562, guid: 709feab55137d3247b9c3439ab52c932,
        type: 3}
      propertyPath: currentObjectDepth
      value: -0.8869879
      objectReference: {fileID: 0}
    - target: {fileID: 7929433183987282562, guid: 709feab55137d3247b9c3439ab52c932,
        type: 3}
      propertyPath: currentTransitionDepth
      value: -0.8869879
      objectReference: {fileID: 0}
    - target: {fileID: 7929433183987282562, guid: 709feab55137d3247b9c3439ab52c932,
        type: 3}
      propertyPath: currentSurfaceLevel
      value: 0.11301206
      objectReference: {fileID: 0}
    - target: {fileID: 7929433183987282562, guid: 709feab55137d3247b9c3439ab52c932,
        type: 3}
      propertyPath: heightValues.Array.data[0]
      value: 0.11301206
      objectReference: {fileID: 0}
    - target: {fileID: 7929433183987282562, guid: 709feab55137d3247b9c3439ab52c932,
        type: 3}
      propertyPath: heightValues.Array.data[1]
      value: 0.11301206
      objectReference: {fileID: 0}
    - target: {fileID: 7929433183987282562, guid: 709feab55137d3247b9c3439ab52c932,
        type: 3}
      propertyPath: heightValues.Array.data[3]
      value: -0.8869879
      objectReference: {fileID: 0}
    - target: {fileID: 7929433183987282562, guid: 709feab55137d3247b9c3439ab52c932,
        type: 3}
      propertyPath: heightValues.Array.data[8]
      value: 2.421686
      objectReference: {fileID: 0}
    - target: {fileID: 7929433183987282562, guid: 709feab55137d3247b9c3439ab52c932,
        type: 3}
      propertyPath: heightValues.Array.data[9]
      value: -0.8869879
      objectReference: {fileID: 0}
    - target: {fileID: 7929433183987282562, guid: 709feab55137d3247b9c3439ab52c932,
        type: 3}
      propertyPath: texCoord.z
      value: 85.53946
      objectReference: {fileID: 0}
    - target: {fileID: 7929433183987282562, guid: 709feab55137d3247b9c3439ab52c932,
        type: 3}
      propertyPath: texCoord1.z
      value: 362.61514
      objectReference: {fileID: 0}
    - target: {fileID: 7929433183987282562, guid: 709feab55137d3247b9c3439ab52c932,
        type: 3}
      propertyPath: texCoordT.z
      value: 85.53946
      objectReference: {fileID: 0}
    - target: {fileID: 7929433183987282562, guid: 709feab55137d3247b9c3439ab52c932,
        type: 3}
      propertyPath: texCoordT1.z
      value: 266.61514
      objectReference: {fileID: 0}
    - target: {fileID: 7929433183987282562, guid: 709feab55137d3247b9c3439ab52c932,
        type: 3}
      propertyPath: texCoordR.z
      value: -6.653784
      objectReference: {fileID: 0}
    - target: {fileID: 7929433183987282562, guid: 709feab55137d3247b9c3439ab52c932,
        type: 3}
      propertyPath: texCoordR1.z
      value: -25.307568
      objectReference: {fileID: 0}
    - target: {fileID: 7929433183987282562, guid: 709feab55137d3247b9c3439ab52c932,
        type: 3}
      propertyPath: heightVal0.r
      value: 0.57254905
      objectReference: {fileID: 0}
    - target: {fileID: 7929433183987282562, guid: 709feab55137d3247b9c3439ab52c932,
        type: 3}
      propertyPath: heightVal0.g
      value: 0.49411765
      objectReference: {fileID: 0}
    - target: {fileID: 7929433183987282562, guid: 709feab55137d3247b9c3439ab52c932,
        type: 3}
      propertyPath: heightVal0.a
      value: 0.09088235
      objectReference: {fileID: 0}
    - target: {fileID: 7929433183987282562, guid: 709feab55137d3247b9c3439ab52c932,
        type: 3}
      propertyPath: heightVal1.r
      value: 0.5803922
      objectReference: {fileID: 0}
    - target: {fileID: 7929433183987282562, guid: 709feab55137d3247b9c3439ab52c932,
        type: 3}
      propertyPath: heightVal1.g
      value: 0.64705884
      objectReference: {fileID: 0}
    - target: {fileID: 7929433183987282562, guid: 709feab55137d3247b9c3439ab52c932,
        type: 3}
      propertyPath: heightVal1.a
      value: 0.08039216
      objectReference: {fileID: 0}
    - target: {fileID: 7929433183987282562, guid: 709feab55137d3247b9c3439ab52c932,
        type: 3}
      propertyPath: heightValT0.r
      value: 0.6313726
      objectReference: {fileID: 0}
    - target: {fileID: 7929433183987282562, guid: 709feab55137d3247b9c3439ab52c932,
        type: 3}
      propertyPath: heightValT0.g
      value: 0.6627451
      objectReference: {fileID: 0}
    - target: {fileID: 7929433183987282562, guid: 709feab55137d3247b9c3439ab52c932,
        type: 3}
      propertyPath: heightValT0.b
      value: 0.9490196
      objectReference: {fileID: 0}
    - target: {fileID: 7929433183987282562, guid: 709feab55137d3247b9c3439ab52c932,
        type: 3}
      propertyPath: heightValT0.a
      value: 0.31327453
      objectReference: {fileID: 0}
    - target: {fileID: 7929433183987282562, guid: 709feab55137d3247b9c3439ab52c932,
        type: 3}
      propertyPath: heightValT1.r
      value: 0.47843137
      objectReference: {fileID: 0}
    - target: {fileID: 7929433183987282562, guid: 709feab55137d3247b9c3439ab52c932,
        type: 3}
      propertyPath: heightValT1.g
      value: 0.5647059
      objectReference: {fileID: 0}
    - target: {fileID: 7929433183987282562, guid: 709feab55137d3247b9c3439ab52c932,
        type: 3}
      propertyPath: heightValT1.b
      value: 0.9882353
      objectReference: {fileID: 0}
    - target: {fileID: 7929433183987282562, guid: 709feab55137d3247b9c3439ab52c932,
        type: 3}
      propertyPath: heightValT1.a
      value: 0.0237451
      objectReference: {fileID: 0}
    - target: {fileID: 7929433183987282562, guid: 709feab55137d3247b9c3439ab52c932,
        type: 3}
      propertyPath: heightValR1.r
      value: 0.50980395
      objectReference: {fileID: 0}
    - target: {fileID: 7929433183987282562, guid: 709feab55137d3247b9c3439ab52c932,
        type: 3}
      propertyPath: heightValR1.g
      value: 0.4627451
      objectReference: {fileID: 0}
    - target: {fileID: 7929433183987282562, guid: 709feab55137d3247b9c3439ab52c932,
        type: 3}
      propertyPath: heightValR1.b
      value: 1
      objectReference: {fileID: 0}
    - target: {fileID: 7929433183987282562, guid: 709feab55137d3247b9c3439ab52c932,
        type: 3}
      propertyPath: heightValR1.a
      value: 0.13284314
      objectReference: {fileID: 0}
    - target: {fileID: 7929433183987282562, guid: 709feab55137d3247b9c3439ab52c932,
        type: 3}
      propertyPath: row
      value: 26
      objectReference: {fileID: 0}
    - target: {fileID: 7929433183987282562, guid: 709feab55137d3247b9c3439ab52c932,
        type: 3}
      propertyPath: pixIndex
      value: 58888
      objectReference: {fileID: 0}
    - target: {fileID: 7929433183987282562, guid: 709feab55137d3247b9c3439ab52c932,
        type: 3}
      propertyPath: pixCol.r
      value: 0.50980395
      objectReference: {fileID: 0}
    - target: {fileID: 7929433183987282562, guid: 709feab55137d3247b9c3439ab52c932,
        type: 3}
      propertyPath: pixCol.g
      value: 0.4627451
      objectReference: {fileID: 0}
    - target: {fileID: 7929433183987282562, guid: 709feab55137d3247b9c3439ab52c932,
        type: 3}
      propertyPath: pixCol.b
      value: 1
      objectReference: {fileID: 0}
    - target: {fileID: 7929433183987282562, guid: 709feab55137d3247b9c3439ab52c932,
        type: 3}
      propertyPath: pixCol.a
      value: 0.13284314
      objectReference: {fileID: 0}
    - target: {fileID: 7929433183987282562, guid: 709feab55137d3247b9c3439ab52c932,
        type: 3}
      propertyPath: useLocalTime
      value: 1.1658615
      objectReference: {fileID: 0}
    - target: {fileID: 7929433183987282562, guid: 709feab55137d3247b9c3439ab52c932,
        type: 3}
      propertyPath: flowSpeed0.x
      value: 0.00000010192285
      objectReference: {fileID: 0}
    - target: {fileID: 7929433183987282562, guid: 709feab55137d3247b9c3439ab52c932,
        type: 3}
      propertyPath: flowSpeed0.y
      value: -1.1658615
      objectReference: {fileID: 0}
    - target: {fileID: 7929433183987282562, guid: 709feab55137d3247b9c3439ab52c932,
        type: 3}
      propertyPath: flowSpeed1.x
      value: 0.000000025480713
      objectReference: {fileID: 0}
    - target: {fileID: 7929433183987282562, guid: 709feab55137d3247b9c3439ab52c932,
        type: 3}
      propertyPath: flowSpeed1.y
      value: -0.29146537
      objectReference: {fileID: 0}
    - target: {fileID: 7929433183987282562, guid: 709feab55137d3247b9c3439ab52c932,
        type: 3}
      propertyPath: flowSpeed2.x
      value: 0.000000006370178
      objectReference: {fileID: 0}
    - target: {fileID: 7929433183987282562, guid: 709feab55137d3247b9c3439ab52c932,
        type: 3}
      propertyPath: flowSpeed2.y
      value: -0.07286634
      objectReference: {fileID: 0}
    - target: {fileID: 7929433183987282562, guid: 709feab55137d3247b9c3439ab52c932,
        type: 3}
      propertyPath: flowSpeed3.x
      value: 0.000000012740356
      objectReference: {fileID: 0}
    - target: {fileID: 7929433183987282562, guid: 709feab55137d3247b9c3439ab52c932,
        type: 3}
      propertyPath: flowSpeed3.y
      value: -0.14573269
      objectReference: {fileID: 0}
    - target: {fileID: 7929433183987282562, guid: 709feab55137d3247b9c3439ab52c932,
        type: 3}
      propertyPath: texCoordR.x
      value: 8.000002
      objectReference: {fileID: 0}
    - target: {fileID: 7929433183987282562, guid: 709feab55137d3247b9c3439ab52c932,
        type: 3}
      propertyPath: heightValR0.r
      value: 0.46666667
      objectReference: {fileID: 0}
    - target: {fileID: 7929433183987282562, guid: 709feab55137d3247b9c3439ab52c932,
        type: 3}
      propertyPath: heightValR0.g
      value: 0.5686275
      objectReference: {fileID: 0}
    - target: {fileID: 7929433183987282562, guid: 709feab55137d3247b9c3439ab52c932,
        type: 3}
      propertyPath: mainCamera
      value: 
      objectReference: {fileID: 40592999}
    - target: {fileID: 7929433183987282562, guid: 709feab55137d3247b9c3439ab52c932,
        type: 3}
      propertyPath: setCamera
      value: 
      objectReference: {fileID: 40592999}
    - target: {fileID: 7929433183987282562, guid: 709feab55137d3247b9c3439ab52c932,
        type: 3}
      propertyPath: setTrack
      value: 
      objectReference: {fileID: 40592999}
    - target: {fileID: 7929433183987282562, guid: 709feab55137d3247b9c3439ab52c932,
        type: 3}
      propertyPath: setLight
      value: 
      objectReference: {fileID: 723543917}
    - target: {fileID: 7929433183987282562, guid: 709feab55137d3247b9c3439ab52c932,
        type: 3}
      propertyPath: objectEnableUnderwaterFX
      value: 1
      objectReference: {fileID: 0}
    - target: {fileID: 7929433183987282562, guid: 709feab55137d3247b9c3439ab52c932,
        type: 3}
      propertyPath: currentObjectIsOver
      value: 1
      objectReference: {fileID: 0}
    - target: {fileID: 7929433183987282562, guid: 709feab55137d3247b9c3439ab52c932,
        type: 3}
      propertyPath: suimonoObject
      value: 
      objectReference: {fileID: 841237961}
    - target: {fileID: 7929433183987282562, guid: 709feab55137d3247b9c3439ab52c932,
        type: 3}
      propertyPath: setCameraComponent
      value: 
      objectReference: {fileID: 40592998}
    - target: {fileID: 7929433183987282562, guid: 709feab55137d3247b9c3439ab52c932,
        type: 3}
      propertyPath: heightValues.Array.data[2]
      value: 0
      objectReference: {fileID: 0}
    - target: {fileID: 7929433183987282562, guid: 709feab55137d3247b9c3439ab52c932,
        type: 3}
      propertyPath: heightValues.Array.data[4]
      value: 1
      objectReference: {fileID: 0}
    - target: {fileID: 7929433183987282562, guid: 709feab55137d3247b9c3439ab52c932,
        type: 3}
      propertyPath: heightValues.Array.data[6]
      value: 180
      objectReference: {fileID: 0}
    - target: {fileID: 7929433183987282562, guid: 709feab55137d3247b9c3439ab52c932,
        type: 3}
      propertyPath: heightValues.Array.data[7]
      value: 0.05
      objectReference: {fileID: 0}
    - target: {fileID: 7929433183987282562, guid: 709feab55137d3247b9c3439ab52c932,
        type: 3}
      propertyPath: heightValues.Array.data[10]
      value: 1
      objectReference: {fileID: 0}
    - target: {fileID: 7929433183987282562, guid: 709feab55137d3247b9c3439ab52c932,
        type: 3}
      propertyPath: heightValues.Array.data[11]
      value: 1
      objectReference: {fileID: 0}
    - target: {fileID: 7929433183987282562, guid: 709feab55137d3247b9c3439ab52c932,
        type: 3}
      propertyPath: heightObject
      value: 
      objectReference: {fileID: 841237962}
    - target: {fileID: 7929433183987282562, guid: 709feab55137d3247b9c3439ab52c932,
        type: 3}
      propertyPath: relativePos.x
      value: 0.5
      objectReference: {fileID: 0}
    - target: {fileID: 7929433183987282562, guid: 709feab55137d3247b9c3439ab52c932,
        type: 3}
      propertyPath: relativePos.y
      value: 0.75
      objectReference: {fileID: 0}
    - target: {fileID: 7929433183987282562, guid: 709feab55137d3247b9c3439ab52c932,
        type: 3}
      propertyPath: texCoord.x
      value: 256.00003
      objectReference: {fileID: 0}
    - target: {fileID: 7929433183987282562, guid: 709feab55137d3247b9c3439ab52c932,
        type: 3}
      propertyPath: texCoord1.x
      value: 192
      objectReference: {fileID: 0}
    - target: {fileID: 7929433183987282562, guid: 709feab55137d3247b9c3439ab52c932,
        type: 3}
      propertyPath: texCoordT.x
      value: 256.00003
      objectReference: {fileID: 0}
    - target: {fileID: 7929433183987282562, guid: 709feab55137d3247b9c3439ab52c932,
        type: 3}
      propertyPath: texCoordT1.x
      value: 127.99999
      objectReference: {fileID: 0}
    - target: {fileID: 7929433183987282562, guid: 709feab55137d3247b9c3439ab52c932,
        type: 3}
      propertyPath: texCoordR1.x
      value: 8.000003
      objectReference: {fileID: 0}
    - target: {fileID: 7929433183987282562, guid: 709feab55137d3247b9c3439ab52c932,
        type: 3}
      propertyPath: heightVal0.b
      value: 1
      objectReference: {fileID: 0}
    - target: {fileID: 7929433183987282562, guid: 709feab55137d3247b9c3439ab52c932,
        type: 3}
      propertyPath: heightVal1.b
      value: 1
      objectReference: {fileID: 0}
    - target: {fileID: 7929433183987282562, guid: 709feab55137d3247b9c3439ab52c932,
        type: 3}
      propertyPath: heightValR0.b
      value: 1
      objectReference: {fileID: 0}
    - target: {fileID: 7929433183987282562, guid: 709feab55137d3247b9c3439ab52c932,
        type: 3}
      propertyPath: flow_dirC.x
      value: 0.00000008742278
      objectReference: {fileID: 0}
    - target: {fileID: 7929433183987282562, guid: 709feab55137d3247b9c3439ab52c932,
        type: 3}
      propertyPath: flow_dirC.y
      value: -1
      objectReference: {fileID: 0}
    - target: {fileID: 7929433183987282562, guid: 709feab55137d3247b9c3439ab52c932,
        type: 3}
      propertyPath: tScale
      value: 2
      objectReference: {fileID: 0}
    - target: {fileID: 7929433183987282568, guid: 709feab55137d3247b9c3439ab52c932,
        type: 3}
      propertyPath: m_LocalPosition.x
      value: 0
      objectReference: {fileID: 0}
    - target: {fileID: 7929433183987282568, guid: 709feab55137d3247b9c3439ab52c932,
        type: 3}
      propertyPath: m_LocalPosition.y
      value: 0
      objectReference: {fileID: 0}
    - target: {fileID: 7929433183987282568, guid: 709feab55137d3247b9c3439ab52c932,
        type: 3}
      propertyPath: m_LocalPosition.z
      value: 0
      objectReference: {fileID: 0}
    - target: {fileID: 7929433183987282568, guid: 709feab55137d3247b9c3439ab52c932,
        type: 3}
      propertyPath: m_LocalRotation.x
      value: 0
      objectReference: {fileID: 0}
    - target: {fileID: 7929433183987282568, guid: 709feab55137d3247b9c3439ab52c932,
        type: 3}
      propertyPath: m_LocalRotation.y
      value: 0
      objectReference: {fileID: 0}
    - target: {fileID: 7929433183987282568, guid: 709feab55137d3247b9c3439ab52c932,
        type: 3}
      propertyPath: m_LocalRotation.z
      value: 0
      objectReference: {fileID: 0}
    - target: {fileID: 7929433183987282568, guid: 709feab55137d3247b9c3439ab52c932,
        type: 3}
      propertyPath: m_LocalRotation.w
      value: 1
      objectReference: {fileID: 0}
    - target: {fileID: 7929433183987282568, guid: 709feab55137d3247b9c3439ab52c932,
        type: 3}
      propertyPath: m_RootOrder
      value: 2
      objectReference: {fileID: 0}
    - target: {fileID: 7929433183987282568, guid: 709feab55137d3247b9c3439ab52c932,
        type: 3}
      propertyPath: m_LocalEulerAnglesHint.x
      value: 0
      objectReference: {fileID: 0}
    - target: {fileID: 7929433183987282568, guid: 709feab55137d3247b9c3439ab52c932,
        type: 3}
      propertyPath: m_LocalEulerAnglesHint.y
      value: 0
      objectReference: {fileID: 0}
    - target: {fileID: 7929433183987282568, guid: 709feab55137d3247b9c3439ab52c932,
        type: 3}
      propertyPath: m_LocalEulerAnglesHint.z
      value: 0
      objectReference: {fileID: 0}
    - target: {fileID: 7929433183987282569, guid: 709feab55137d3247b9c3439ab52c932,
        type: 3}
      propertyPath: m_Name
      value: SUIMONO_Module
      objectReference: {fileID: 0}
    - target: {fileID: 7929433184259864081, guid: 709feab55137d3247b9c3439ab52c932,
        type: 3}
      propertyPath: field of view
      value: 60
      objectReference: {fileID: 0}
    - target: {fileID: 7929433184259864081, guid: 709feab55137d3247b9c3439ab52c932,
        type: 3}
      propertyPath: m_TargetTexture
      value: 
      objectReference: {fileID: 1321194915}
    - target: {fileID: 7929433184259864083, guid: 709feab55137d3247b9c3439ab52c932,
        type: 3}
      propertyPath: m_LocalRotation.x
      value: 0.21689788
      objectReference: {fileID: 0}
    - target: {fileID: 7929433184259864083, guid: 709feab55137d3247b9c3439ab52c932,
        type: 3}
      propertyPath: m_LocalRotation.y
      value: 0.4217356
      objectReference: {fileID: 0}
    - target: {fileID: 7929433184259864083, guid: 709feab55137d3247b9c3439ab52c932,
        type: 3}
      propertyPath: m_LocalRotation.z
      value: -0.10464244
      objectReference: {fileID: 0}
    - target: {fileID: 7929433184259864083, guid: 709feab55137d3247b9c3439ab52c932,
        type: 3}
      propertyPath: m_LocalRotation.w
      value: 0.8741535
      objectReference: {fileID: 0}
    - target: {fileID: 7929433184259864083, guid: 709feab55137d3247b9c3439ab52c932,
        type: 3}
      propertyPath: m_LocalPosition.x
      value: 42.6
      objectReference: {fileID: 0}
    - target: {fileID: 7929433184259864083, guid: 709feab55137d3247b9c3439ab52c932,
        type: 3}
      propertyPath: m_LocalPosition.y
      value: 68.73
      objectReference: {fileID: 0}
    - target: {fileID: 7929433184259864083, guid: 709feab55137d3247b9c3439ab52c932,
        type: 3}
      propertyPath: m_LocalPosition.z
      value: 24.6
      objectReference: {fileID: 0}
    - target: {fileID: 7929433184709282339, guid: 709feab55137d3247b9c3439ab52c932,
        type: 3}
      propertyPath: field of view
      value: 60
      objectReference: {fileID: 0}
    - target: {fileID: 7929433184709282339, guid: 709feab55137d3247b9c3439ab52c932,
        type: 3}
      propertyPath: m_TargetTexture
      value: 
      objectReference: {fileID: 2016119199}
    - target: {fileID: 7929433184709282350, guid: 709feab55137d3247b9c3439ab52c932,
        type: 3}
      propertyPath: m_LocalRotation.x
      value: 0.21689788
      objectReference: {fileID: 0}
    - target: {fileID: 7929433184709282350, guid: 709feab55137d3247b9c3439ab52c932,
        type: 3}
      propertyPath: m_LocalRotation.y
      value: 0.4217356
      objectReference: {fileID: 0}
    - target: {fileID: 7929433184709282350, guid: 709feab55137d3247b9c3439ab52c932,
        type: 3}
      propertyPath: m_LocalRotation.z
      value: -0.10464244
      objectReference: {fileID: 0}
    - target: {fileID: 7929433184709282350, guid: 709feab55137d3247b9c3439ab52c932,
        type: 3}
      propertyPath: m_LocalRotation.w
      value: 0.8741535
      objectReference: {fileID: 0}
    - target: {fileID: 7929433184709282350, guid: 709feab55137d3247b9c3439ab52c932,
        type: 3}
      propertyPath: m_LocalPosition.x
      value: 42.6
      objectReference: {fileID: 0}
    - target: {fileID: 7929433184709282350, guid: 709feab55137d3247b9c3439ab52c932,
        type: 3}
      propertyPath: m_LocalPosition.y
      value: 68.73
      objectReference: {fileID: 0}
    - target: {fileID: 7929433184709282350, guid: 709feab55137d3247b9c3439ab52c932,
        type: 3}
      propertyPath: m_LocalPosition.z
      value: 24.6
      objectReference: {fileID: 0}
    - target: {fileID: 7929433185375320082, guid: 709feab55137d3247b9c3439ab52c932,
        type: 3}
      propertyPath: m_LocalRotation.x
      value: 0.21689788
      objectReference: {fileID: 0}
    - target: {fileID: 7929433185375320082, guid: 709feab55137d3247b9c3439ab52c932,
        type: 3}
      propertyPath: m_LocalRotation.y
      value: 0.4217356
      objectReference: {fileID: 0}
    - target: {fileID: 7929433185375320082, guid: 709feab55137d3247b9c3439ab52c932,
        type: 3}
      propertyPath: m_LocalRotation.z
      value: -0.10464244
      objectReference: {fileID: 0}
    - target: {fileID: 7929433185375320082, guid: 709feab55137d3247b9c3439ab52c932,
        type: 3}
      propertyPath: m_LocalRotation.w
      value: 0.8741535
      objectReference: {fileID: 0}
    - target: {fileID: 7929433185375320082, guid: 709feab55137d3247b9c3439ab52c932,
        type: 3}
      propertyPath: m_LocalPosition.x
      value: 42.6
      objectReference: {fileID: 0}
    - target: {fileID: 7929433185375320082, guid: 709feab55137d3247b9c3439ab52c932,
        type: 3}
      propertyPath: m_LocalPosition.y
      value: 68.73
      objectReference: {fileID: 0}
    - target: {fileID: 7929433185375320082, guid: 709feab55137d3247b9c3439ab52c932,
        type: 3}
      propertyPath: m_LocalPosition.z
      value: 24.6
      objectReference: {fileID: 0}
    - target: {fileID: 7929433185375320086, guid: 709feab55137d3247b9c3439ab52c932,
        type: 3}
      propertyPath: field of view
      value: 60
      objectReference: {fileID: 0}
    - target: {fileID: 7929433185375320086, guid: 709feab55137d3247b9c3439ab52c932,
        type: 3}
      propertyPath: m_RenderingPath
      value: -1
      objectReference: {fileID: 0}
    - target: {fileID: 7929433185375320086, guid: 709feab55137d3247b9c3439ab52c932,
        type: 3}
      propertyPath: m_TargetTexture
      value: 
      objectReference: {fileID: 1587012467}
    - target: {fileID: 7929433185659134064, guid: 709feab55137d3247b9c3439ab52c932,
        type: 3}
      propertyPath: field of view
      value: 60
      objectReference: {fileID: 0}
    - target: {fileID: 7929433185659134064, guid: 709feab55137d3247b9c3439ab52c932,
        type: 3}
      propertyPath: m_TargetTexture
      value: 
      objectReference: {fileID: 513857823}
    - target: {fileID: 7929433185659134066, guid: 709feab55137d3247b9c3439ab52c932,
        type: 3}
      propertyPath: m_LocalRotation.x
      value: 0.21689788
      objectReference: {fileID: 0}
    - target: {fileID: 7929433185659134066, guid: 709feab55137d3247b9c3439ab52c932,
        type: 3}
      propertyPath: m_LocalRotation.y
      value: 0.4217356
      objectReference: {fileID: 0}
    - target: {fileID: 7929433185659134066, guid: 709feab55137d3247b9c3439ab52c932,
        type: 3}
      propertyPath: m_LocalRotation.z
      value: -0.10464244
      objectReference: {fileID: 0}
    - target: {fileID: 7929433185659134066, guid: 709feab55137d3247b9c3439ab52c932,
        type: 3}
      propertyPath: m_LocalRotation.w
      value: 0.8741535
      objectReference: {fileID: 0}
    - target: {fileID: 7929433185659134066, guid: 709feab55137d3247b9c3439ab52c932,
        type: 3}
      propertyPath: m_LocalPosition.x
      value: 42.6
      objectReference: {fileID: 0}
    - target: {fileID: 7929433185659134066, guid: 709feab55137d3247b9c3439ab52c932,
        type: 3}
      propertyPath: m_LocalPosition.y
      value: 68.73
      objectReference: {fileID: 0}
    - target: {fileID: 7929433185659134066, guid: 709feab55137d3247b9c3439ab52c932,
        type: 3}
      propertyPath: m_LocalPosition.z
      value: 24.6
      objectReference: {fileID: 0}
    - target: {fileID: 7929433185927020296, guid: 709feab55137d3247b9c3439ab52c932,
        type: 3}
      propertyPath: m_LocalRotation.x
      value: 0.21689788
      objectReference: {fileID: 0}
    - target: {fileID: 7929433185927020296, guid: 709feab55137d3247b9c3439ab52c932,
        type: 3}
      propertyPath: m_LocalRotation.y
      value: 0.4217356
      objectReference: {fileID: 0}
    - target: {fileID: 7929433185927020296, guid: 709feab55137d3247b9c3439ab52c932,
        type: 3}
      propertyPath: m_LocalRotation.z
      value: -0.10464244
      objectReference: {fileID: 0}
    - target: {fileID: 7929433185927020296, guid: 709feab55137d3247b9c3439ab52c932,
        type: 3}
      propertyPath: m_LocalRotation.w
      value: 0.8741535
      objectReference: {fileID: 0}
    - target: {fileID: 7929433185927020296, guid: 709feab55137d3247b9c3439ab52c932,
        type: 3}
      propertyPath: m_LocalPosition.x
      value: 42.6
      objectReference: {fileID: 0}
    - target: {fileID: 7929433185927020296, guid: 709feab55137d3247b9c3439ab52c932,
        type: 3}
      propertyPath: m_LocalPosition.y
      value: 68.73
      objectReference: {fileID: 0}
    - target: {fileID: 7929433185927020296, guid: 709feab55137d3247b9c3439ab52c932,
        type: 3}
      propertyPath: m_LocalPosition.z
      value: 24.6
      objectReference: {fileID: 0}
    - target: {fileID: 7929433185927020302, guid: 709feab55137d3247b9c3439ab52c932,
        type: 3}
      propertyPath: field of view
      value: 60
      objectReference: {fileID: 0}
    - target: {fileID: 7929433185927020302, guid: 709feab55137d3247b9c3439ab52c932,
        type: 3}
      propertyPath: m_TargetTexture
      value: 
      objectReference: {fileID: 1241847270}
    m_RemovedComponents: []
  m_SourcePrefab: {fileID: 100100000, guid: 709feab55137d3247b9c3439ab52c932, type: 3}
--- !u!84 &2016119199
RenderTexture:
  m_ObjectHideFlags: 0
  m_CorrespondingSourceObject: {fileID: 0}
  m_PrefabInstance: {fileID: 0}
  m_PrefabAsset: {fileID: 0}
  m_Name: 
  m_ImageContentsHash:
    serializedVersion: 2
    Hash: 00000000000000000000000000000000
  m_ForcedFallbackFormat: 4
  m_DownscaleFallback: 0
  serializedVersion: 3
  m_Width: 512
  m_Height: 512
  m_AntiAliasing: 1
  m_MipCount: -1
  m_DepthFormat: 2
  m_ColorFormat: 52
  m_MipMap: 0
  m_GenerateMips: 0
  m_SRGB: 0
  m_UseDynamicScale: 0
  m_BindMS: 0
  m_EnableCompatibleFormat: 1
  m_TextureSettings:
    serializedVersion: 2
    m_FilterMode: 2
    m_Aniso: 1
    m_MipBias: 0
    m_WrapU: 1
    m_WrapV: 1
    m_WrapW: 1
  m_Dimension: 2
  m_VolumeDepth: 1
--- !u!1 &2027957557
GameObject:
  m_ObjectHideFlags: 0
  m_CorrespondingSourceObject: {fileID: 0}
  m_PrefabInstance: {fileID: 0}
  m_PrefabAsset: {fileID: 0}
  serializedVersion: 6
  m_Component:
  - component: {fileID: 2027957559}
  - component: {fileID: 2027957558}
  m_Layer: 0
  m_Name: Road Network
  m_TagString: Untagged
  m_Icon: {fileID: 0}
  m_NavMeshLayer: 0
  m_StaticEditorFlags: 0
  m_IsActive: 1
--- !u!114 &2027957558
MonoBehaviour:
  m_ObjectHideFlags: 0
  m_CorrespondingSourceObject: {fileID: 0}
  m_PrefabInstance: {fileID: 0}
  m_PrefabAsset: {fileID: 0}
  m_GameObject: {fileID: 2027957557}
  m_Enabled: 1
  m_EditorHideFlags: 0
  m_Script: {fileID: 365290288, guid: f56d46228aee4734f9114056c53bb57e, type: 3}
  m_Name: 
  m_EditorClassIdentifier: 
  updateInt: 10
  newSplatMapRestoreCode: 0
  toolbarInt: 1
  oldToolbarInt: 0
  roadToolbarInt: 0
  markerToolbarInt: 0
  menuTexs:
  - {fileID: 2800000, guid: 34aed1010b525bf4c9cfd7da35361a90, type: 3}
  - {fileID: 2800000, guid: 32e963efb91d19147842f8bd95d6ac56, type: 3}
  - {fileID: 2800000, guid: ffc15be4bded7b34f9f406cde082a4a2, type: 3}
  - {fileID: 2800000, guid: 881f73f964cf5104abc91a5f657615a8, type: 3}
  - {fileID: 2800000, guid: b2f9adc22d0fa0647880b18b89bf0872, type: 3}
  - {fileID: 2800000, guid: 8583bfb2058e94a48801d7212430d8d1, type: 3}
  - {fileID: 2800000, guid: a734eccac0ad8bc49950dd4fbee58611, type: 3}
  menuGUIContents: []
  subMenuTexs: []
  cprefab: {fileID: 0}
  nodeHandleTexture: {fileID: 0}
  lockedTexture: {fileID: 2800000, guid: 95bcc58da45020345aeaaaf89ea8a000, type: 3}
  unLockedTexture: {fileID: 2800000, guid: 8b70bdf1ef68d1f429183b0746cc82be, type: 3}
  favOffTexture: {fileID: 2800000, guid: 4610916023d3a28469d5b61bd4da820a, type: 3}
  favOffFreeTexture: {fileID: 2800000, guid: 6e72efafe24d89440ad1eac37036f47c, type: 3}
  favOnTexture: {fileID: 2800000, guid: 41435a1c7bba43d4096e494c66152033, type: 3}
  selRoadTexture: {fileID: 2800000, guid: 46e81e5d2c8b2144582558b65e45db86, type: 3}
  headerTexture: {fileID: 2800000, guid: 16ef664a0f7023c4a94fa58f50bf2899, type: 3}
  sceneGUITex: {fileID: 0}
  soIcon: {fileID: 0}
  roadObjectsParent: {fileID: 1061375259}
  connectionObjectsParent: {fileID: 607298932}
  OQDOQQQDCO: {fileID: 0}
  roadTypes:
  - roadTypeName: Default Road
    id: 1
    timestamp: 1481875527.1197023
    roadWidth: 5
    faceDistance: 2
    angleTreshold: 45
    uvTiling: 1
    uv4Type: 0
    type: 0
    detailDistance: 50
    planarUVs: 0
    outerIndent: 0
    roadShapeDataActive: 0
    roadShapeData:
      nodes: []
      hardEdge: 
      priorityNodeIndexLeft: 0
      priorityNodeIndexRight: 0
      nodesV3: []
      lanes: []
      leftLanes: 0
      rightLanes: 0
      symmetrical: 0
      leftSidewalkOffset: 0
      rightSidewalkOffset: 0
      outerLaneMarkingLeftIndex: 0
      includeOuterlaneLeftInShape: 0
      includeOuterlaneRightInShape: 0
      outerLaneMarkingRightIndex: 0
      outerOuterLaneMarkingLeftIndex: 0
      outerOuterLaneMarkingRightIndex: 0
      selectedNode: 0
      selectedLaneNode: 0
      isSymmetrical: 0
      isset: 0
    minSpeed: 45
    maxSpeed: 55
    speedLimit: 50
    roadShape:
    - {x: -3, y: 0}
    - {x: 3, y: 0}
    roadShapeExt: []
    roadShapeExt2: []
    doConnectionTri: 
    doConnectionTriExt: 
    roadShapeUVs: []
    roadShapeExtUVs: []
    roadShapeExtUVs2: []
    roadShapeUVs2: []
    preserveUVs: 0
    hardEdge: 
    roadShapeVecsString: 
    defaultSidewalk: 0
    sidewalks: 0
    sidewalkHeight: 0.2
    sidewalkWidth: 2
    roadMaterial: {fileID: 2100000, guid: f182e2714eb8a714a99ed091081ce16c, type: 2}
    roadMaterials: []
    roadPhysicsMaterial: {fileID: 2100000, guid: f182e2714eb8a714a99ed091081ce16c,
      type: 2}
    roadPhysicsMaterials: []
    connectionMaterial: {fileID: 2100000, guid: 3c555588afad81d428ad1704d5d015a7,
      type: 2}
    isSideObject: 0
    isCustomRoad: 0
    subSegments: 1
    soData: []
    soDataExt: []
    soDataLog: []
    layer: 0
    isStatic: 1
    tag: Untagged
    splatMapActive: 0
    splatIndex: 0
    expandLevel: 0
    smoothLevel: 0
    splatOpacity: 0
    followTerrainContours: 0
    terrainContoursOffset: 0
    terrainDeformation: 1
    defaultIndent: 0
    defaultSurrounding: 0
    castShadow: 0
    randomnessFlag: 0
    randomYPosition: 0
    randomMinYPosition: 0
    randomMaxYPosition: 0
    minRandomYPositionDistance: 0
    maxRandomYPositionDistance: 0
    randomMinRotation: 0
    randomMaxRotation: 0
    minRandomRotationDistance: 0
    maxRandomRotationDistance: 0
    vegetationStudioMaskLineActive: 0
    vegetationStudioGrassPerimeter: 0
    vegetationStudioPlantPerimeter: 0
    vegetationStudioTreePerimeter: 0
    vegetationStudioObjectPerimeter: 0
    vegetationStudioLargeObjectPerimeter: 0
    vegetationStudioBiomeMaskActive: 0
    vegetationStudioBiomeMaskDistance: 0
    vegetationStudioBiomeMaskBlendDistance: 0
    vegetationStudioBiomeMaskNoiseScale: 0
    decalPresets: []
    decalClassPresets: []
    defaultRamp: 0
    extrusionType: 0
    extrusionDistance: 0
    fixedDistance: 0
    connectionAngle: 0
    connectionRadius: 0
    isRoadShape: 0
    controlType: 0
    vertexColor: {r: 0, g: 0, b: 0, a: 0}
  selectedRoadType: 0
  selectedNewRoadType: 0
  inspRoadTypes: []
  inspRoadTypeInts: 
  decalPresets: []
  roadWidth: 5
  roadMaterial: {fileID: 2100000, guid: f182e2714eb8a714a99ed091081ce16c, type: 2}
  crossingMaterial: {fileID: 2100000, guid: f182e2714eb8a714a99ed091081ce16c, type: 2}
  roundAboutMaterial: {fileID: 2100000, guid: 55e19257e99adea4380d1160ee92af9f, type: 2}
  roundAboutConnectionMaterial: {fileID: 2100000, guid: ce8bb957aa39a384eb46fd561e66303f,
    type: 2}
  roundAboutRoadMaterial: {fileID: 2100000, guid: f182e2714eb8a714a99ed091081ce16c,
    type: 2}
  sidewalkMaterial: {fileID: 0}
  targetMaterial: {fileID: 0}
  sourceTerrain: {fileID: 0}
  roadMaterials:
  - road material
  connectionMaterials:
  - crossing material
  - road X sidewalks
  selectedMaterial: 0
  selectedConnectionMaterial: 0
  materials: []
  selectedRoadRoadType: 0
  roadOptions: 0
  sidewalkOptions: 0
  markerOptions: 0
  showRoadSideObjects: 0
  markerSOOptions: 1
  roadTerrainOptions: 0
  camFlyOver: 0
  selectedRoadMaterial: 0
  roadTextureInfoIndex: 0
  selectedRoadTexture: {fileID: 0}
  selectedRoadWidth: 0
  selectedRoadLeftOffset: 0
  selectedRoadRightOffset: 0
  selectedRoadLeftInnerOffset: 0
  selectedRoadRightInnerOffset: 0
  selectedCrossingMaterial: 0
  crossingTextureInfoIndex: 0
  handleSelection: 1
  positionHandleSelection: 1
  markerDirXZ: 0
  defaultCrossing: {fileID: 0}
  defaultTCrossing: {fileID: 0}
  defaultCulDeSac: {fileID: 0}
  defaultRoundabout: {fileID: 0}
  tex: {fileID: 0}
  infoTexture: {fileID: 0}
  showAllPrefabs: 1
  standardPrefabsFlag: 0
  sceneSettingsFoldOut: 0
  sceneRoadsFoldOut: 0
  scenePrefabsFoldOut: 0
  sidewalksFoldOut: 0
  terrainManagementFoldOut: 0
  importRoadDataFoldOut: 0
  lodGroupsFoldOut: 0
  defaultMaterialsFoldOut: 0
  aiTrafficFoldout: 0
  kmlFlag: 0
  osmFlag: 0
  useOSMHeights: 0
  heightRatio: 1
  dynamicPrefabsFoldOut: 1
  customPrefabsFoldOut: 1
  dynamicFavList: []
  customFavList: []
  prefabsDisplayType: 0
  ignoreTerrainAlerts: 0
  osmTerrainTopLon: 0
  osmTerrainBottomLon: 0
  osmTerrainLeftLat: 0
  osmTerrainRightLat: 0
  terrainMinIndent: 0
  minIndent: 2.9296875
  minSurrounding: 5
  maxIndentSurrounding: 50
  terrainY: -10000
  terrainDetailSplatX: 50
  terrainDetailSplatY: 50
  detailOffsetVec: {x: 50, y: 0, z: 50}
  raise: 0.02
  baseVector: {x: 0, y: 0, z: 0}
  mirrorCrossings: 1
  terrainNames:
  - All Terrains
  terrainObjects:
  - {fileID: 0}
  terrainSplatTextures:
  - Splat 1 - Grass ER ER
  - Splat 2 - Grass&Rock ER
  activeTerrain: {fileID: 0}
  activeTerrainY: 0
  selectedTerrain: 0
  selectedRoadsOnly: 0
  terrainDone: 0
  enableBackWithoutRestore: 0
  detailDistance: 3
  treeDistance: 5
  doHeightmap: 1
  doTrees: 1
  soTrees: 1
  doDetail: 1
  terrainRect:
    serializedVersion: 2
    x: 0
    y: 0
    width: 0
    height: 0
  tunnelObjects: []
  surfaceObjects: []
  preserveTerrainFloat: 1
  terrainSmoothIndentDistance: 1
  terrainSmoothSurroundingDistance: 1
  indentSmoothStep: 0
  surroundingSmoothStep: 0
  doTangents: 1
  doLightmapUVs: 0
  doLODGroups: 0
  doSplatmaps: 0
  sLayer: 31
  terrainHits: []
  osmCrossingPoints: []
  cornerPresets: []
  sidewalkPresets: []
  sidewalks: []
  selectedSidewalk: 0
  selectedRoadTypeSidewalk: 0
  osmMotorway: 0
  osmMotorwayLink: 0
  osmTrunk: 0
  osmPrimary: 0
  osmSecondary: 0
  osmTertiary: 0
  osmUnclassified: 0
  osmResidential: 0
  osmService: 0
  osmTrack: 0
  osmPath: 0
  osmWalkway: 0
  osmRaceway: 0
  osmHighwayStringInt: 0
  osmMotorwayFlag: 1
  osmMotorwayLinkFlag: 1
  osmTrunkFlag: 1
  osmPrimaryFlag: 1
  osmSecondaryFlag: 1
  osmTertiaryFlag: 1
  osmUnclassifiedFlag: 1
  osmResidentialFlag: 1
  osmServiceFlag: 1
  osmTrackFlag: 1
  osmPathFlag: 1
  osmWalkwayFlag: 0
  osmRacewayFlag: 1
  osmHighwayString: 
  kmlRoadType: 0
  lodGroups: 0
  LODLevels: 4
  LODLevelValues:
  - 0.6
  - 0.4
  - 0.2
  - 0
  LODLevelResolution:
  - 0.9
  - 0.8
  - 0.6
  - 0.4
  embedRoadShape: 0
  hideSurfaces: 1
  showSurfaces: 0
  useLightProbes: 0
  hideLockedObjects: 0
  ODQQQQOQOC: 0
  isInBuildMode: 0
  progressFlag: 0
  progressTerrain: 1
  progressStatus: 1
  progressMax: 1
  QOQDQOOQDDQOOQ: []
  sideObjectNames: []
  selSideObject: 0
  selSubSideObject: 0
  soID: 
  sideObjectName: 
  sideObjectType: 0
  sideObjectSource: {fileID: 0}
  soEndObject: {fileID: 0}
  sideObjectTerrainVegetationInt: 0
  prefabChildHandling: 0
  sideObjectDistance: 1
  soYAxisRotation: 0
  soSidewaysDistance: 0
  soSidewaysDistanceHandling: 0
  soDensity: 1
  soOffset: 0
  soTerrainAligment: 0
  soCombine: 0
  soWeld: 0
  soControllerType: 0
  soMaterial: {fileID: 0}
  soXPosition: 0
  soYPosition: 0
  soMarkerActive: 1
  enableSOHandles: 1
  enableShapeNodeHandles: 0
  enableSOShapeNodeHandles: 0
  displayCriticalPoints: 1
  highlightRoad: 1
  highlightIndents: 1
  highlightSurroundings: 1
  tempHighlights: 0
  tempHighlightRoad: 0
  tempHighlightIndents: 0
  tempHighlightSurroundings: 0
  highlightSideObject: 1
  highlightRoadColor: {r: 0.39, g: 0.53, b: 0.9, a: 0.13725491}
  highlightIndentColor: {r: 1, g: 1, b: 1, a: 0.13725491}
  highlightSurroundingColor: {r: 1, g: 1, b: 1, a: 0.05882353}
  onlyShowSelectedRoad: 0
  soDeformationObjects: []
  soSplatmapObjects: []
  buildSOinEditMode: 1
  tangentsInEditMode: 1
  calculateSmoothNormals: 0
  importSideObjectsAlert: 1
  importRoadPresetsAlert: 1
  importCrossingPresetsAlert: 0
  importSidewalkPresetsAlert: 0
  updateSideObjectsAlert: 0
  updateRoadPresetsAlert: 0
  updateCrossingPresetsAlert: 0
  updateSidewalkPresetsAlert: 0
  waypointDistance: 10
  RoadObjectsSoUpdates: []
  assetsFolderID: 
  meshSurface: {fileID: 0}
  meshTerrainCollider: {fileID: 0}
  markerScale: 1
  markerDistance: 200
  minMarkerDistance: 100
  maxMarkerDistance: 500
  debugFlag: 0
  leftTHandles: []
  rightTHandles: []
  roadNetworkY: 0
  ignoreMinIndents: 0
  zoomStart: {x: 0, y: 0, z: 0}
  zoomEnd: {x: 0, y: 0, z: 0}
  lookAtStart: {x: 0, y: 0, z: 0}
  lookAtEnd: {x: 0, y: 0, z: 0}
  zoomRot: {x: 0, y: 0, z: 0, w: 0}
  zoomStartTime: 0
  hideSurfaceHandles: 0
  tempHideSurfaceHandles: 1
  dirtyBool: 0
  dirtyOnSceneBool: 0
  forceRoadNetworkSelect: 0
  OOOCQDDDCD: 1
  OQDOQQQDCOScript: {fileID: 0}
  ODCODQOCQCCrossingsScript: {fileID: 0}
  ODCODQOCQCScript: {fileID: 0}
  OQDOQQQDCOElement: -1
  OQCCQOODQO: -1
  ODOCCCQOQO: {fileID: 0}
  OOOCQOOCOQ: {fileID: 0}
  OOCOOCDOQQ: -1
  selectedRoadSOMarker: -1
  selectedMarkerNode: -1
  selectedMarkerNodes: 
  selectedMarkerSONode: -1
  selectedMarkerSONodes: 
  selectedObjects: []
  selectedExitRoad: -1
  newRoadFlag: 0
  roadTypeUpdateFlag: 0
  roadScripts: []
  prefabScripts: []
  globalGridActive: 0
  gridGUIActive: 0
  globalGridColor: {r: 0.35, g: 0.5, b: 0.9, a: 0.9}
  globalGridSize: 10
  globalGridRadius: 1000
  globalGridRotation: 0
  gridOffset: {x: 0, y: 0}
  ggTL: {x: 0, y: 0, z: 0}
  ggBL: {x: 0, y: 0, z: 0}
  ggBR: {x: 0, y: 0, z: 0}
  localGridActive: 0
  localGrids: []
  selectedLocalGrid: 0
  fbxExport: 0
  sw:
    name: 
    id: 0
    timestamp: 0
    sidewalkWidth: 1.5
    curbHeight: 0.25
    curbDepth: 0.25
    beveledCurb: 0
    beveledHeight: 0
    beveledDepth: 0
    outerCurb: 0
    roadSideCurbUVControl: 0
    outerSideCurbUVControl: 0
    material: {fileID: 0}
    hardEdges: 0
    hardEdgePadding: 0
    shape: []
    sidewalkUVs: []
    curbUVs: []
    doConnectionTri: 
    tileRect:
      serializedVersion: 2
      x: 0
      y: 0
      width: 0
      height: 0
    tileSize: 1
    tiling: 1
    uvRatio: 1
    minEnd: 1
    maxEnd: 1
    lockUVs: 0
    cornerRadius: 1
    cornerSegments: 5
    innerSegmentDistance: 0.5
    pavementIndex: 2
  roadUpdated: 0
  clampUVs: 1
  soCategoryInt: 0
  soRoadCategoryInt: 0
  minRoadWidth: 1
  maxRoadWidth: 75
  maxCurbHeight: 0.5
  minCornerRadius: 0.5
  maxCornerRadius: 5
  SoTestObject: {fileID: 0}
  lockRoadNetwork: 0
  showNotifications: 1
  multipleTerrainsWarning: 0
  OCCDCDOCQD: []
  OOOCCOCDOD: []
  textureCounter: 0
  vegetationStudio: 0
  vegetationStudioPro: 0
  vegetationStudioActive: 0
  vegetationStudioMaskLineActive: 1
  vegetationStudioGrassPerimeter: 2
  vegetationStudioPlantPerimeter: 3
  vegetationStudioTreePerimeter: 4
  vegetationStudioObjectPerimeter: 3
  vegetationStudioLargeObjectPerimeter: 4
  vegetationStudioBiomeMaskActive: 0
  vegetationStudioBiomeMaskDistance: 0
  vegetationStudioBiomeMaskBlendDistance: 0
  vegetationStudioBiomeMaskNoiseScale: 0
  aiTraffic: 0
  aiMatchingLanesOnly: 1
  aiconnectNonMatchinglaneCounts: 1
  aiIgnoreConnections: 1
  displayLaneData: 0
  rightHandDriving: 1
  leftLaneHandleColour: {r: 0.5, g: 0.5, b: 0.5, a: 0.5}
  rightLaneHandleColour: {r: 1, g: 1, b: 1, a: 0.5}
  laneHandleSelectedColour: {r: 1, g: 1, b: 0, a: 0.5}
  roadUvThreshold: 1750
  updateQueue: 0
  logChange: 0
  debugMode: 0
  RoadNetworkInitFlag: 1
  excludeFromSelection: []
  addExcludeFromSelection: {fileID: 0}
  shapeUVColor: {r: 0, g: 0, b: 0, a: 1}
  startCapColor: {r: 0.35, g: 0.5, b: 0.9, a: 1}
  endCapColor: {r: 0.35, g: 0.5, b: 0.9, a: 1}
  soSectionMaterial: {fileID: 0}
  v32b4Flag: 0
--- !u!4 &2027957559
Transform:
  m_ObjectHideFlags: 0
  m_CorrespondingSourceObject: {fileID: 0}
  m_PrefabInstance: {fileID: 0}
  m_PrefabAsset: {fileID: 0}
  m_GameObject: {fileID: 2027957557}
  m_LocalRotation: {x: 0, y: 0, z: 0, w: 1}
  m_LocalPosition: {x: 0, y: 0, z: 0}
  m_LocalScale: {x: 1, y: 1, z: 1}
  m_Children:
  - {fileID: 607298932}
  - {fileID: 1061375259}
  m_Father: {fileID: 0}
  m_RootOrder: 6
  m_LocalEulerAnglesHint: {x: 0, y: 0, z: 0}
